sim1.vcd
$date
	Fri Jul 04 17:21:15 2025
$end
$version
	Icarus Verilog
$end
$timescale
	1s
$end
$scope module sccomp_tb $end
$var wire 32 ! reg_data [31:0] $end
$var reg 1 " clk $end
$var reg 5 # reg_sel [4:0] $end
$var reg 1 $ rstn $end
$var integer 32 % counter [31:0] $end
$var integer 32 & foutput [31:0] $end
$scope module U_SCCOMP $end
$var wire 1 " clk $end
$var wire 5 ' reg_sel [4:0] $end
$var wire 1 ( rst $end
$var wire 1 $ rstn $end
$var wire 32 ) reg_data [31:0] $end
$var wire 32 * instr [31:0] $end
$var wire 32 + dm_dout [31:0] $end
$var wire 32 , dm_din [31:0] $end
$var wire 32 - dm_addr [31:0] $end
$var wire 32 . PC [31:0] $end
$var wire 1 / MemWrite $end
$var wire 3 0 DMType [2:0] $end
$scope module U_DM $end
$var wire 9 1 addr [8:0] $end
$var wire 1 " clk $end
$var wire 32 2 din [31:0] $end
$var wire 7 3 Num [8:2] $end
$var wire 1 / DMWr $end
$var wire 3 4 DMType [2:0] $end
$var reg 32 5 dout [31:0] $end
$upscope $end
$scope module U_IM $end
$var wire 8 6 addr [9:2] $end
$var wire 32 7 dout [31:0] $end
$upscope $end
$scope module U_SCPU $end
$var wire 3 8 DMType [2:0] $end
$var wire 32 9 Data_in [31:0] $end
$var wire 32 : Data_out [31:0] $end
$var wire 1 ; Flush $end
$var wire 32 < JALR_Addr [31:0] $end
$var wire 1 / MemWrite $end
$var wire 32 = alu_A [31:0] $end
$var wire 1 " clk $end
$var wire 32 > inst_in [31:0] $end
$var wire 1 ? is_Branch $end
$var wire 5 @ reg_sel [4:0] $end
$var wire 1 ( reset $end
$var wire 20 A uimm [19:0] $end
$var wire 1 B stall $end
$var wire 12 C simm [11:0] $end
$var wire 5 D rs2 [4:0] $end
$var wire 5 E rs1 [4:0] $end
$var wire 32 F reg_data [31:0] $end
$var wire 5 G rd [4:0] $end
$var wire 20 H jimm [19:0] $end
$var wire 32 I immout [31:0] $end
$var wire 5 J iimm_shamt [4:0] $end
$var wire 12 K iimm [11:0] $end
$var wire 12 L bimm [11:0] $end
$var wire 32 M aluout [31:0] $end
$var wire 32 N alu_B [31:0] $end
$var wire 1 O Zero $end
$var wire 2 P WDSel [1:0] $end
$var wire 1 Q RegWrite $end
$var wire 32 R RD2 [31:0] $end
$var wire 32 S RD1 [31:0] $end
$var wire 32 T PC_out [31:0] $end
$var wire 7 U Op [6:0] $end
$var wire 3 V NPCOp [2:0] $end
$var wire 32 W NPC [31:0] $end
$var wire 1 X MemWrite_ctrl $end
$var wire 1 Y MemRead_crtl $end
$var wire 32 Z JAL_Addr [31:0] $end
$var wire 12 [ Imm12 [11:0] $end
$var wire 20 \ IMM [19:0] $end
$var wire 2 ] GPRSel [1:0] $end
$var wire 7 ^ Funct7 [6:0] $end
$var wire 3 _ Funct3 [2:0] $end
$var wire 2 ` ForwardB [1:0] $end
$var wire 2 a ForwardA [1:0] $end
$var wire 6 b EXTOp [5:0] $end
$var wire 3 c DMType_ctrl [2:0] $end
$var wire 32 d Branch_Addr [31:0] $end
$var wire 1 e BranchTaken $end
$var wire 32 f Addr_out [31:0] $end
$var wire 1 g ALUSrc $end
$var wire 5 h ALUOp [4:0] $end
$var reg 32 i EX_MEM_B [31:0] $end
$var reg 3 j EX_MEM_DMType [2:0] $end
$var reg 1 k EX_MEM_MemRead $end
$var reg 1 l EX_MEM_MemWrite $end
$var reg 32 m EX_MEM_PC [31:0] $end
$var reg 1 n EX_MEM_RegWrite $end
$var reg 2 o EX_MEM_WDSel [1:0] $end
$var reg 32 p EX_MEM_alu_out [31:0] $end
$var reg 32 q EX_MEM_inst [31:0] $end
$var reg 5 r EX_MEM_rd [4:0] $end
$var reg 32 s ID_EX_A [31:0] $end
$var reg 5 t ID_EX_ALUOp [4:0] $end
$var reg 1 u ID_EX_ALUSrc $end
$var reg 32 v ID_EX_B [31:0] $end
$var reg 3 w ID_EX_DMType [2:0] $end
$var reg 2 x ID_EX_GPRSel [1:0] $end
$var reg 1 y ID_EX_MemRead $end
$var reg 1 z ID_EX_MemWrite $end
$var reg 32 { ID_EX_PC [31:0] $end
$var reg 1 | ID_EX_RegWrite $end
$var reg 2 } ID_EX_WDSel [1:0] $end
$var reg 32 ~ ID_EX_imm [31:0] $end
$var reg 32 !" ID_EX_inst [31:0] $end
$var reg 5 "" ID_EX_rd [4:0] $end
$var reg 5 #" ID_EX_rs1 [4:0] $end
$var reg 5 $" ID_EX_rs2 [4:0] $end
$var reg 32 %" IF_ID_PC [31:0] $end
$var reg 32 &" IF_ID_inst [31:0] $end
$var reg 1 '" IF_ID_valid $end
$var reg 32 (" MEM_WB_PC [31:0] $end
$var reg 1 )" MEM_WB_RegWrite $end
$var reg 2 *" MEM_WB_WDSel [1:0] $end
$var reg 32 +" MEM_WB_alu_out [31:0] $end
$var reg 32 ," MEM_WB_dmem_out [31:0] $end
$var reg 32 -" MEM_WB_inst [31:0] $end
$var reg 5 ." MEM_WB_rd [4:0] $end
$var reg 32 /" WD [31:0] $end
$var reg 32 0" alu_in1 [31:0] $end
$var reg 32 1" alu_in2 [31:0] $end
$scope module U_BranchUnit $end
$var wire 3 2" Funct3 [2:0] $end
$var wire 32 3" rs2_val [31:0] $end
$var wire 32 4" rs1_val [31:0] $end
$var reg 1 e BranchTaken $end
$upscope $end
$scope module U_EXT $end
$var wire 12 5" bimm [11:0] $end
$var wire 12 6" iimm [11:0] $end
$var wire 5 7" iimm_shamt [4:0] $end
$var wire 20 8" jimm [19:0] $end
$var wire 12 9" simm [11:0] $end
$var wire 20 :" uimm [19:0] $end
$var wire 6 ;" EXTOp [5:0] $end
$var reg 32 <" immout [31:0] $end
$upscope $end
$scope module U_Forwarding $end
$var wire 1 n EX_MEM_RegWrite $end
$var wire 5 =" EX_MEM_rd [4:0] $end
$var wire 5 >" ID_EX_rs1 [4:0] $end
$var wire 5 ?" ID_EX_rs2 [4:0] $end
$var wire 1 )" MEM_WB_RegWrite $end
$var wire 5 @" MEM_WB_rd [4:0] $end
$var reg 2 A" ForwardA [1:0] $end
$var reg 2 B" ForwardB [1:0] $end
$upscope $end
$scope module U_Hazard_Detect $end
$var wire 1 k EX_MEM_MemRead $end
$var wire 1 n EX_MEM_RegWrite $end
$var wire 5 C" EX_MEM_rd [4:0] $end
$var wire 1 y ID_EX_MemRead $end
$var wire 1 | ID_EX_RegWrite $end
$var wire 5 D" ID_EX_rd [4:0] $end
$var wire 1 ? IF_ID_is_Branch $end
$var wire 5 E" IF_ID_rs1 [4:0] $end
$var wire 5 F" IF_ID_rs2 [4:0] $end
$var reg 1 B stall $end
$upscope $end
$scope module U_NPC $end
$var wire 1 e BranchTaken $end
$var wire 32 G" Branch_Addr [31:0] $end
$var wire 32 H" IF_ID_PC [31:0] $end
$var wire 32 I" JALR_Addr [31:0] $end
$var wire 32 J" JAL_Addr [31:0] $end
$var wire 1 K" stall $end
$var wire 32 L" PCPLUS4 [31:0] $end
$var wire 32 M" PC [31:0] $end
$var wire 3 N" NPCOp [2:0] $end
$var reg 32 O" NPC [31:0] $end
$upscope $end
$scope module U_PC $end
$var wire 32 P" NPC [31:0] $end
$var wire 1 " clk $end
$var wire 1 ( rst $end
$var reg 32 Q" PC [31:0] $end
$upscope $end
$scope module U_RF $end
$var wire 5 R" A1 [4:0] $end
$var wire 5 S" A2 [4:0] $end
$var wire 5 T" A3 [4:0] $end
$var wire 1 )" RFWr $end
$var wire 32 U" WD [31:0] $end
$var wire 1 V" bypass_for_rd1 $end
$var wire 1 W" bypass_for_rd2 $end
$var wire 1 " clk $end
$var wire 1 ( rst $end
$var wire 32 X" rf_read_data2 [31:0] $end
$var wire 32 Y" rf_read_data1 [31:0] $end
$var wire 32 Z" RD2 [31:0] $end
$var wire 32 [" RD1 [31:0] $end
$var integer 32 \" i [31:0] $end
$upscope $end
$scope module U_alu $end
$var wire 32 ]" A [31:0] $end
$var wire 5 ^" ALUOp [4:0] $end
$var wire 32 _" B [31:0] $end
$var wire 32 `" PC [31:0] $end
$var wire 1 O Zero $end
$var reg 32 a" C [31:0] $end
$upscope $end
$scope module U_ctrl $end
$var wire 1 g ALUSrc $end
$var wire 3 b" Funct3 [2:0] $end
$var wire 7 c" Funct7 [6:0] $end
$var wire 1 Y MemRead $end
$var wire 1 X MemWrite $end
$var wire 7 d" Op [6:0] $end
$var wire 1 Q RegWrite $end
$var wire 1 e" i_add $end
$var wire 1 f" i_addi $end
$var wire 1 g" i_and $end
$var wire 1 h" i_andi $end
$var wire 1 i" i_beq $end
$var wire 1 j" i_bge $end
$var wire 1 k" i_bgeu $end
$var wire 1 l" i_blt $end
$var wire 1 m" i_bltu $end
$var wire 1 n" i_bne $end
$var wire 1 o" i_lb $end
$var wire 1 p" i_lbu $end
$var wire 1 q" i_lh $end
$var wire 1 r" i_lhu $end
$var wire 1 s" i_lw $end
$var wire 1 t" i_or $end
$var wire 1 u" i_ori $end
$var wire 1 v" i_sb $end
$var wire 1 w" i_sh $end
$var wire 1 x" i_sll $end
$var wire 1 y" i_slli $end
$var wire 1 z" i_slt $end
$var wire 1 {" i_slti $end
$var wire 1 |" i_sltiu $end
$var wire 1 }" i_sltu $end
$var wire 1 ~" i_sra $end
$var wire 1 !# i_srai $end
$var wire 1 "# i_srl $end
$var wire 1 ## i_srli $end
$var wire 1 $# i_sub $end
$var wire 1 %# i_sw $end
$var wire 1 &# i_xor $end
$var wire 1 '# i_xori $end
$var wire 1 (# utype $end
$var wire 1 )# stype $end
$var wire 1 *# rtype $end
$var wire 1 +# load $end
$var wire 1 ,# jalr $end
$var wire 1 -# jal $end
$var wire 1 .# itype $end
$var wire 1 /# btype $end
$var wire 1 0# auipc $end
$var wire 2 1# WDSel [1:0] $end
$var wire 3 2# NPCOp [2:0] $end
$var wire 2 3# GPRSel [1:0] $end
$var wire 6 4# EXTOp [5:0] $end
$var wire 3 5# DMType [2:0] $end
$var wire 5 6# ALUOp [4:0] $end
$upscope $end
$upscope $end
$upscope $end
$upscope $end
$enddefinitions $end
$comment Show the parameter values. $end
$dumpall
$end
#0
$dumpvars
bx 6#
bx 5#
bx 4#
bx0 3#
bx 2#
bx 1#
x0#
x/#
x.#
x-#
x,#
x+#
x*#
x)#
x(#
x'#
x&#
x%#
x$#
x##
x"#
x!#
x~"
x}"
x|"
x{"
xz"
xy"
xx"
xw"
xv"
xu"
xt"
xs"
xr"
xq"
xp"
xo"
xn"
xm"
xl"
xk"
xj"
xi"
xh"
xg"
xf"
xe"
bx d"
bx c"
bx b"
bx a"
bx `"
bx _"
bx ^"
bx ]"
bx \"
bx ["
bx Z"
bx Y"
bx X"
xW"
xV"
bx U"
bx T"
bx S"
bx R"
bx Q"
bx P"
bx O"
bx N"
bx M"
bx L"
zK"
bx J"
bx0 I"
bx H"
bx G"
bx F"
bx E"
bx D"
bx C"
bx B"
bx A"
bx @"
bx ?"
bx >"
bx ="
bx <"
bx ;"
bx :"
bx 9"
bx 8"
bx 7"
bx 6"
bx 5"
bx 4"
bx 3"
bx 2"
bx 1"
bx 0"
bx /"
bx ."
bx -"
bx ,"
bx +"
bx *"
x)"
bx ("
1'"
bx &"
bx %"
bx $"
bx #"
bx ""
bx !"
bx ~
bx }
x|
bx {
xz
xy
bx0 x
bx w
bx v
xu
bx t
bx s
bx r
bx q
bx p
bx o
xn
bx m
xl
xk
bx j
bx i
bx h
xg
bx f
xe
bx d
bx c
bx b
bx a
bx `
bx _
bx ^
bx0 ]
bx \
bx [
bx Z
xY
xX
bx W
bx V
bx U
bx T
bx S
bx R
xQ
bx P
xO
bx N
bx M
bx L
bx K
bx J
bx I
bx H
bx G
bx F
bx E
bx D
bx C
xB
bx A
bx @
x?
bx >
bx =
bx0 <
x;
bx :
bx 9
bx 8
bx 7
bx 6
bx 5
bx 4
bx 3
bx 2
bx 1
bx 0
x/
bx .
bx -
bx ,
bx +
bx *
bx )
0(
bx '
b10 &
b0 %
1$
bx #
1"
bx !
$end
#5
b0 <
b0 I"
b0 Z
b0 J"
b0 d
b0 G"
b0 I
b0 <"
b0 /"
b0 U"
b11 h
b11 6#
0Q
0g
0?
0;
1e
b0 N
b0 _"
1O
b0 M
b0 a"
b0 S
b0 4"
b0 ["
b0 R
b0 3"
b0 Z"
b0 3
b0 1"
b0 =
b0 ]"
b0 0"
b0 ]
b0 3#
b0 V
b0 N"
b0 2#
b0 P
b0 1#
0e"
0$#
0x"
0z"
0}"
0&#
0"#
0~"
0t"
0g"
0y"
0##
0!#
0f"
0{"
0|"
0'#
0u"
0h"
0i"
0n"
0l"
0j"
0m"
0k"
0o"
0q"
0s"
0p"
0r"
0v"
0w"
0%#
b0 c
b0 5#
b0 Y"
0V"
b0 X"
0W"
b0 1
b0 `
b0 B"
b0 a
b0 A"
0B
b0 J
b0 7"
b0 K
b0 6"
b0 C
b0 9"
b0 L
b0 5"
b0 A
b0 :"
b0 H
b0 8"
00#
0*#
0.#
0X
0)#
0/#
0(#
b0 b
b0 ;"
b0 4#
0-#
0,#
0Y
0+#
b0 U
b0 d"
b0 ^
b0 c"
b0 _
b0 2"
b0 b"
b0 E
b0 E"
b0 R"
b0 D
b0 F"
b0 S"
b0 G
b0 [
b0 \
b100000000001010010011 *
b100000000001010010011 7
b100000000001010010011 >
b0 6
b100 W
b100 O"
b100 P"
b0 -"
b0 ("
b0 *"
0)"
b0 ."
b0 @"
b0 T"
b0 ,"
b0 +"
0k
b0 0
b0 4
b0 8
b0 j
b0 q
b0 o
0/
0l
0n
b0 m
b0 r
b0 ="
b0 C"
b0 ,
b0 2
b0 :
b0 i
b0 -
b0 f
b0 p
b0 w
b0 t
b0 ^"
b0 x
b0 }
0u
0y
0z
0|
b0 !"
b0 $"
b0 ?"
b0 #"
b0 >"
b0 ""
b0 D"
b0 ~
b0 v
b0 s
b0 {
b0 `"
b0 %"
b0 H"
b0 &"
b100 L"
b0 .
b0 T
b0 M"
b0 Q"
b100000 \"
1(
0$
#25
0(
1$
#50
0"
#100
b1 Z
b1 J"
b1 d
b1 G"
b1 I
b1 <"
1g
1Q
b10000 b
b10000 ;"
b10000 4#
1f"
b100000000001100010011 *
b100000000001100010011 7
b100000000001100010011 >
b1 6
b1000 W
b1000 O"
b1000 P"
b1 J
b1 7"
b1 K
b1 6"
b101 C
b101 9"
b10000000010 L
b10000000010 5"
b100000000 A
b100000000 :"
b10000000000 H
b10000000000 8"
1.#
b10011 U
b10011 d"
b1 D
b1 F"
b1 S"
b101 G
b1 [
b100000000 \
b1000 L"
b100 .
b100 T
b100 M"
b100 Q"
bx ,"
b11 t
b11 ^"
b100000000001010010011 &"
b1 %
1"
#150
0"
#200
0O
b1 M
b1 a"
b1 N
b1 _"
b110 C
b110 9"
b11 L
b11 5"
b110 G
b1110010011 *
b1110010011 7
b1110010011 >
b10 6
b1100 W
b1100 O"
b1100 P"
1u
1|
b1 $"
b1 ?"
b101 ""
b101 D"
b1 ~
b100000000001010010011 !"
b100000000001100010011 &"
b101 d
b101 G"
b101 Z
b101 J"
b100 %"
b100 H"
b1100 L"
b1000 .
b1000 T
b1000 M"
b1000 Q"
b10 %
1"
#250
0"
#300
b0 I
b0 <"
b10000010011 *
b10000010011 7
b10000010011 >
b11 6
b1 1
b0 J
b0 7"
b0 K
b0 6"
b111 C
b111 9"
b10000000011 L
b10000000011 5"
b0 A
b0 :"
b0 H
b0 8"
b0 D
b0 F"
b0 S"
b111 G
b0 [
b0 \
b10000 W
b10000 O"
b10000 P"
b10000 L"
b1100 .
b1100 T
b1100 M"
b1100 Q"
1n
b101 r
b101 ="
b101 C"
b1 -
b1 f
b1 p
b100000000001010010011 q
b110 ""
b110 D"
b100000000001100010011 !"
b100 {
b100 `"
b1110010011 &"
b1000 d
b1000 G"
b1000 Z
b1000 J"
b1000 %"
b1000 H"
b11 %
1"
#350
0"
#400
b1 /"
b1 U"
1O
b0 M
b0 a"
b0 N
b0 _"
b1000 C
b1000 9"
b100 L
b100 5"
b1000 G
b10011 *
b10011 7
b10011 >
b100 6
b10100 W
b10100 O"
b10100 P"
1)"
b101 ."
b101 @"
b101 T"
b1 +"
b100000000001010010011 -"
b110 r
b110 ="
b110 C"
b100000000001100010011 q
b100 m
b0 $"
b0 ?"
b111 ""
b111 D"
b0 ~
b1110010011 !"
b1000 {
b1000 `"
b10000010011 &"
b1100 d
b1100 G"
b1100 Z
b1100 J"
b1100 %"
b1100 H"
b10100 L"
b10000 .
b10000 T
b10000 M"
b10000 Q"
b100 %
1"
#450
0"
#500
b101 6
b0 1
b0 C
b0 9"
b0 L
b0 5"
b0 G
b11000 W
b11000 O"
b11000 P"
b11000 L"
b10100 .
b10100 T
b10100 M"
b10100 Q"
b110 ."
b110 @"
b110 T"
b100000000001100010011 -"
b100 ("
b111 r
b111 ="
b111 C"
b0 -
b0 f
b0 p
b1110010011 q
b1000 m
b1000 ""
b1000 D"
b10000010011 !"
b1100 {
b1100 `"
b10011 &"
b10000 d
b10000 G"
b10000 Z
b10000 J"
b10000 %"
b10000 H"
b101 %
1"
#550
0"
#600
b0 /"
b0 U"
b11000101000100001100011 *
b11000101000100001100011 7
b11000101000100001100011 >
b110 6
b11100 W
b11100 O"
b11100 P"
b111 ."
b111 @"
b111 T"
b0 +"
b1110010011 -"
b1000 ("
b1000 r
b1000 ="
b1000 C"
b10000010011 q
b1100 m
b0 ""
b0 D"
b10011 !"
b10000 {
b10000 `"
b10100 d
b10100 G"
b10100 Z
b10100 J"
b10100 %"
b10100 H"
b11100 L"
b11000 .
b11000 T
b11000 M"
b11000 Q"
b110 %
1"
#650
0"
#700
b10000 <
b10000 I"
b10000 I
b10000 <"
b10010 h
b10010 6#
0g
0Q
1;
1?
b1 V
b1 N"
b1 2#
b1 S
b1 4"
b1 ["
b1 R
b1 3"
b1 Z"
0f"
1i"
b1 Y"
b1 X"
b101000000010000010011 *
b101000000010000010011 7
b101000000010000010011 >
b111 6
b110 J
b110 7"
b110 K
b110 6"
b10000 C
b10000 9"
b1000 L
b1000 5"
b11000101000 A
b11000101000 :"
b10100000000000011 H
b10100000000000011 8"
0.#
b100 b
b100 ;"
b100 4#
1/#
b1100011 U
b1100011 d"
b101 E
b101 E"
b101 R"
b110 D
b110 F"
b110 S"
b10000 G
b110 [
b11000101000 \
b101000 W
b101000 O"
b101000 P"
b100000 L"
b11100 .
b11100 T
b11100 M"
b11100 Q"
b1000 ."
b1000 @"
b1000 T"
b10000010011 -"
b1100 ("
b0 r
b0 ="
b0 C"
b10011 q
b10000 m
b10100 {
b10100 `"
b11000101000100001100011 &"
b101000 d
b101000 G"
b101000 Z
b101000 J"
b11000 %"
b11000 H"
b111 %
1"
#750
0"
#800
b0 <
b0 I"
b0 I
b0 <"
b11 h
b11 6#
0;
0?
b0 V
b0 N"
b0 2#
b0 S
b0 4"
b0 ["
b0 R
b0 3"
b0 Z"
0i"
b0 Y"
b0 X"
b1 N
b1 _"
b1 1"
b1 =
b1 ]"
b1 0"
b0 J
b0 7"
b0 K
b0 6"
b0 C
b0 9"
b0 L
b0 5"
b0 A
b0 :"
b0 H
b0 8"
b0 b
b0 ;"
b0 4#
0/#
b0 U
b0 d"
b0 E
b0 E"
b0 R"
b0 D
b0 F"
b0 S"
b0 G
b0 [
b0 \
b100111000001110010011 *
b100111000001110010011 7
b100111000001110010011 >
b1010 6
b101100 W
b101100 O"
b101100 P"
b0 ."
b0 @"
b0 T"
b10011 -"
b10000 ("
b10100 m
b10010 t
b10010 ^"
0u
0|
b110 $"
b110 ?"
b101 #"
b101 >"
b10000 ""
b10000 D"
b10000 ~
b1 v
b1 s
b11000101000100001100011 !"
b11000 {
b11000 `"
b0 &"
b0 d
b0 G"
b0 Z
b0 J"
b0 %"
b0 H"
b101100 L"
b101000 .
b101000 T
b101000 M"
b101000 Q"
b1000 %
1"
#850
0"
#900
b1 I
b1 <"
1g
1Q
b10000 b
b10000 ;"
b10000 4#
b0 N
b0 _"
1f"
b110000000000000001101111 *
b110000000000000001101111 7
b110000000000000001101111 >
b1011 6
b0 1"
b0 =
b0 ]"
b0 0"
1O
b0 M
b0 a"
b1 J
b1 7"
b1 K
b1 6"
b111 C
b111 9"
b10000000011 L
b10000000011 5"
b100111000 A
b100111000 :"
b11100010000000000 H
b11100010000000000 8"
1.#
b10011 U
b10011 d"
b111 E
b111 E"
b111 R"
b1 D
b1 F"
b1 S"
b111 G
b1 [
b100111000 \
b110000 W
b110000 O"
b110000 P"
b110000 L"
b101100 .
b101100 T
b101100 M"
b101100 Q"
b10100 ("
0n
b10000 r
b10000 ="
b10000 C"
b1 ,
b1 2
b1 :
b1 i
b11000101000100001100011 q
b11000 m
b11 t
b11 ^"
b0 $"
b0 ?"
b0 #"
b0 >"
b0 ""
b0 D"
b0 ~
b0 v
b0 s
b0 !"
b0 {
b0 `"
b100111000001110010011 &"
b101001 d
b101001 G"
b101001 Z
b101001 J"
b101000 %"
b101000 H"
b1001 %
1"
#950
0"
#1000
b1100 <
b1100 I"
b1100 I
b1100 <"
1?
1;
b10 P
b10 1#
b10 V
b10 N"
b10 2#
0O
b1 M
b1 a"
0f"
b10 ]
b10 3#
b1 N
b1 _"
b1100 J
b1100 7"
b1100 K
b1100 6"
b0 C
b0 9"
b0 L
b0 5"
b110000000000 A
b110000000000 :"
b110 H
b110 8"
0.#
b1 b
b1 ;"
b1 4#
1-#
b1101111 U
b1101111 d"
b0 E
b0 E"
b0 R"
b1100 D
b1100 F"
b1100 S"
b0 G
b1100 [
b110000000000 \
b101000000010000010011 *
b101000000010000010011 7
b101000000010000010011 >
b1100 6
b111000 W
b111000 O"
b111000 P"
0)"
b10000 ."
b10000 @"
b10000 T"
b11000101000100001100011 -"
b11000 ("
b0 r
b0 ="
b0 C"
b0 ,
b0 2
b0 :
b0 i
b0 q
b0 m
1u
1|
b1 $"
b1 ?"
b111 #"
b111 >"
b111 ""
b111 D"
b1 ~
b100111000001110010011 !"
b101000 {
b101000 `"
b110000000000000001101111 &"
b111000 d
b111000 G"
b111000 Z
b111000 J"
b101100 %"
b101100 H"
b110100 L"
b110000 .
b110000 T
b110000 M"
b110000 Q"
b1010 %
1"
#1025
b0 !
b0 )
b0 F
b111 #
b111 '
b111 @
#1050
0"
#1100
b0 <
b0 I"
b0 I
b0 <"
0?
0;
b0 P
b0 1#
0g
0Q
b0 V
b0 N"
b0 2#
b1100 M
b1100 a"
b0 ]
b0 3#
b100111000001110010011 *
b100111000001110010011 7
b100111000001110010011 >
b1110 6
b1 1
b1100 N
b1100 _"
b0 J
b0 7"
b0 K
b0 6"
b0 A
b0 :"
b0 H
b0 8"
b0 b
b0 ;"
b0 4#
0-#
b0 U
b0 d"
b0 D
b0 F"
b0 S"
b0 [
b0 \
b111100 W
b111100 O"
b111100 P"
b111100 L"
b111000 .
b111000 T
b111000 M"
b111000 Q"
b0 ."
b0 @"
b0 T"
b0 -"
b0 ("
1n
b111 r
b111 ="
b111 C"
b1 -
b1 f
b1 p
b100111000001110010011 q
b101000 m
b10 x
b10 }
b1100 $"
b1100 ?"
b0 #"
b0 >"
b0 ""
b0 D"
b1100 ~
b110000000000000001101111 !"
b101100 {
b101100 `"
b0 &"
b0 d
b0 G"
b0 Z
b0 J"
b0 %"
b0 H"
b1011 %
1"
#1150
0"
#1200
0e
b10 <
b10 I"
b1 S
b1 4"
b1 ["
b1 I
b1 <"
b1 /"
b1 U"
1g
1Q
b10000 b
b10000 ;"
b10000 4#
1V"
b11 3
1O
b0 M
b0 a"
1f"
b1100 1
b0 N
b0 _"
b1 J
b1 7"
b1 K
b1 6"
b111 C
b111 9"
b10000000011 L
b10000000011 5"
b100111000 A
b100111000 :"
b11100010000000000 H
b11100010000000000 8"
1.#
b10011 U
b10011 d"
b111 E
b111 E"
b111 R"
b1 D
b1 F"
b1 S"
b111 G
b1 [
b100111000 \
bx *
bx 7
bx >
b1111 6
b1000000 W
b1000000 O"
b1000000 P"
1)"
b111 ."
b111 @"
b111 T"
b1 +"
b100111000001110010011 -"
b101000 ("
b10 o
b0 r
b0 ="
b0 C"
b1100 -
b1100 f
b1100 p
b110000000000000001101111 q
b101100 m
b0 x
b0 }
0u
0|
b0 $"
b0 ?"
b0 ~
b0 !"
b0 {
b0 `"
b100111000001110010011 &"
b111001 d
b111001 G"
b111001 Z
b111001 J"
b111000 %"
b111000 H"
b1000000 L"
b111100 .
b111100 T
b111100 M"
b111100 Q"
b1100 %
1"
#1250
0"
#1300
b0 I
b0 <"
b110000 /"
b110000 U"
xQ
xg
x?
x;
bx0 <
bx0 I"
bx R
bx 3"
bx Z"
bx S
bx 4"
bx ["
b0 3
0O
b10 M
b10 a"
bx h
bx 6#
bx0 ]
bx0 3#
bx V
bx N"
bx 2#
bx P
bx 1#
xe"
x$#
xx"
xz"
x}"
x&#
x"#
x~"
xt"
xg"
xy"
x##
x!#
xf"
x{"
x|"
x'#
xu"
xh"
xi"
xn"
xl"
xj"
xm"
xk"
xo"
xq"
xs"
xp"
xr"
xv"
xw"
x%#
bx c
bx 5#
bx X"
b10000 6
bx Y"
b1 !
b1 )
b1 F
0V"
b0 1
b1 N
b1 _"
b1 =
b1 ]"
b1 0"
bx J
bx 7"
bx K
bx 6"
bx C
bx 9"
bx L
bx 5"
bx A
bx :"
bx H
bx 8"
x0#
x*#
x.#
xX
x)#
x/#
x(#
bx b
bx ;"
bx 4#
x-#
x,#
xY
x+#
bx U
bx d"
bx ^
bx c"
bx _
bx 2"
bx b"
bx E
bx E"
bx R"
bx D
bx F"
bx S"
bx G
bx [
bx \
b1000100 W
b1000100 O"
b1000100 P"
b1000100 L"
b1000000 .
b1000000 T
b1000000 M"
b1000000 Q"
b10 *"
b0 ."
b0 @"
b0 T"
b1100 +"
b110000000000000001101111 -"
b101100 ("
b0 o
0n
b0 -
b0 f
b0 p
b0 q
b0 m
1u
1|
b1 $"
b1 ?"
b111 #"
b111 >"
b111 ""
b111 D"
b1 ~
b1 s
b100111000001110010011 !"
b111000 {
b111000 `"
bx &"
b111100 d
b111100 G"
b111100 Z
b111100 J"
b111100 %"
b111100 H"
b1101 %
1"
#1350
0"
#1400
b0 /"
b0 U"
b10 1
bx N
bx _"
bx 1"
bx =
bx ]"
bx 0"
b10001 6
b1001000 W
b1001000 O"
b1001000 P"
b0 *"
0)"
b0 +"
b0 -"
b0 ("
1n
b111 r
b111 ="
b111 C"
b10 -
b10 f
b10 p
b100111000001110010011 q
b111000 m
bx w
bx t
bx ^"
bx0 x
bx }
xu
xy
xz
x|
bx $"
bx ?"
bx #"
bx >"
bx ""
bx D"
b0 ~
bx v
bx s
bx !"
b111100 {
b111100 `"
b1000000 d
b1000000 G"
b1000000 Z
b1000000 J"
b1000000 %"
b1000000 H"
b1001000 L"
b1000100 .
b1000100 T
b1000100 M"
b1000100 Q"
b1110 %
1"
#1450
0"
#1500
b10 /"
b10 U"
xV"
xW"
b10010 6
b1001100 W
b1001100 O"
b1001100 P"
b1001100 L"
b1001000 .
b1001000 T
b1001000 M"
b1001000 Q"
1)"
b111 ."
b111 @"
b111 T"
b10 +"
b100111000001110010011 -"
b111000 ("
bx 0
bx 4
bx 8
bx j
bx o
xk
x/
xl
xn
bx r
bx ="
bx C"
bx ,
bx 2
bx :
bx i
bx q
b111100 m
b1000000 {
b1000000 `"
b1000100 d
b1000100 G"
b1000100 Z
b1000100 J"
b1000100 %"
b1000100 H"
b1111 %
1"
#1550
0"
#1600
b10 !
b10 )
b10 F
b10011 6
b1010000 W
b1010000 O"
b1010000 P"
bx *"
x)"
bx ."
bx @"
bx T"
bx -"
b111100 ("
b1000000 m
b1000100 {
b1000100 `"
b1001000 d
b1001000 G"
b1001000 Z
b1001000 J"
b1001000 %"
b1001000 H"
b1010000 L"
b1001100 .
b1001100 T
b1001100 M"
b1001100 Q"
b10000 %
1"
#1650
0"
#1700
b10100 6
b1010100 W
b1010100 O"
b1010100 P"
b1010100 L"
b1010000 .
b1010000 T
b1010000 M"
b1010000 Q"
b1000000 ("
b1000100 m
b1001000 {
b1001000 `"
b1001100 d
b1001100 G"
b1001100 Z
b1001100 J"
b1001100 %"
b1001100 H"
b10001 %
1"
#1750
0"
#1800
b10101 6
b1011000 W
b1011000 O"
b1011000 P"
b1000100 ("
b1001000 m
b1001100 {
b1001100 `"
b1010000 d
b1010000 G"
b1010000 Z
b1010000 J"
b1010000 %"
b1010000 H"
b1011000 L"
b1010100 .
b1010100 T
b1010100 M"
b1010100 Q"
b10010 %
1"
#1850
0"
#1900
b10110 6
b1011100 W
b1011100 O"
b1011100 P"
b1011100 L"
b1011000 .
b1011000 T
b1011000 M"
b1011000 Q"
b1001000 ("
b1001100 m
b1010000 {
b1010000 `"
b1010100 d
b1010100 G"
b1010100 Z
b1010100 J"
b1010100 %"
b1010100 H"
b10011 %
1"
#1950
0"
#2000
b10111 6
b1100000 W
b1100000 O"
b1100000 P"
b1001100 ("
b1010000 m
b1010100 {
b1010100 `"
b1011000 d
b1011000 G"
b1011000 Z
b1011000 J"
b1011000 %"
b1011000 H"
b1100000 L"
b1011100 .
b1011100 T
b1011100 M"
b1011100 Q"
b10100 %
1"
#2050
0"
#2100
b11000 6
b1100100 W
b1100100 O"
b1100100 P"
b1100100 L"
b1100000 .
b1100000 T
b1100000 M"
b1100000 Q"
b1010000 ("
b1010100 m
b1011000 {
b1011000 `"
b1011100 d
b1011100 G"
b1011100 Z
b1011100 J"
b1011100 %"
b1011100 H"
b10101 %
1"
#2150
0"
