sim2.vcd
$date
	Sat Jul 05 00:52:56 2025
$end
$version
	Icarus Verilog
$end
$timescale
	1s
$end
$scope module sccomp_tb $end
$var wire 32 ! reg_data [31:0] $end
$var reg 1 " clk $end
$var reg 5 # reg_sel [4:0] $end
$var reg 1 $ rstn $end
$var integer 32 % counter [31:0] $end
$var integer 32 & foutput [31:0] $end
$scope module U_SCCOMP $end
$var wire 1 " clk $end
$var wire 5 ' reg_sel [4:0] $end
$var wire 1 ( rst $end
$var wire 1 $ rstn $end
$var wire 32 ) reg_data [31:0] $end
$var wire 32 * instr [31:0] $end
$var wire 32 + dm_dout [31:0] $end
$var wire 32 , dm_din [31:0] $end
$var wire 32 - dm_addr [31:0] $end
$var wire 32 . PC [31:0] $end
$var wire 1 / MemWrite $end
$var wire 3 0 DMType [2:0] $end
$scope module U_DM $end
$var wire 9 1 addr [8:0] $end
$var wire 1 " clk $end
$var wire 32 2 din [31:0] $end
$var wire 7 3 Num [8:2] $end
$var wire 1 / DMWr $end
$var wire 3 4 DMType [2:0] $end
$var reg 32 5 dout [31:0] $end
$upscope $end
$scope module U_IM $end
$var wire 8 6 addr [9:2] $end
$var wire 32 7 dout [31:0] $end
$upscope $end
$scope module U_SCPU $end
$var wire 3 8 DMType [2:0] $end
$var wire 32 9 Data_in [31:0] $end
$var wire 32 : Data_out [31:0] $end
$var wire 1 ; Flush $end
$var wire 32 < JALR_Addr [31:0] $end
$var wire 1 / MemWrite $end
$var wire 32 = alu_A [31:0] $end
$var wire 1 " clk $end
$var wire 1 > forward_WB_to_MEM $end
$var wire 32 ? inst_in [31:0] $end
$var wire 1 @ is_Branch $end
$var wire 5 A reg_sel [4:0] $end
$var wire 1 ( reset $end
$var wire 20 B uimm [19:0] $end
$var wire 1 C stall $end
$var wire 12 D simm [11:0] $end
$var wire 5 E rs2 [4:0] $end
$var wire 5 F rs1 [4:0] $end
$var wire 32 G reg_data [31:0] $end
$var wire 5 H rd [4:0] $end
$var wire 20 I jimm [19:0] $end
$var wire 32 J immout [31:0] $end
$var wire 5 K iimm_shamt [4:0] $end
$var wire 12 L iimm [11:0] $end
$var wire 32 M final_data_to_memory [31:0] $end
$var wire 1 N final_ID_EX_RegWrite $end
$var wire 1 O final_ID_EX_MemWrite $end
$var wire 1 P final_ID_EX_MemRead $end
$var wire 12 Q bimm [11:0] $end
$var wire 32 R aluout [31:0] $end
$var wire 32 S alu_B [31:0] $end
$var wire 1 T Zero $end
$var wire 2 U WDSel [1:0] $end
$var wire 1 V RegWrite $end
$var wire 32 W RD2 [31:0] $end
$var wire 32 X RD1 [31:0] $end
$var wire 32 Y PC_out [31:0] $end
$var wire 7 Z Op [6:0] $end
$var wire 3 [ NPCOp [2:0] $end
$var wire 32 \ NPC [31:0] $end
$var wire 1 ] MemWrite_ctrl $end
$var wire 1 ^ MemRead_crtl $end
$var wire 32 _ JAL_Addr [31:0] $end
$var wire 12 ` Imm12 [11:0] $end
$var wire 20 a IMM [19:0] $end
$var wire 2 b GPRSel [1:0] $end
$var wire 7 c Funct7 [6:0] $end
$var wire 3 d Funct3 [2:0] $end
$var wire 2 e ForwardID_B [1:0] $end
$var wire 2 f ForwardID_A [1:0] $end
$var wire 2 g ForwardB [1:0] $end
$var wire 2 h ForwardA [1:0] $end
$var wire 6 i EXTOp [5:0] $end
$var wire 3 j DMType_ctrl [2:0] $end
$var wire 32 k Branch_Addr [31:0] $end
$var wire 1 l BranchTaken $end
$var wire 32 m Addr_out [31:0] $end
$var wire 1 n ALUSrc $end
$var wire 5 o ALUOp [4:0] $end
$var reg 32 p EX_MEM_B [31:0] $end
$var reg 3 q EX_MEM_DMType [2:0] $end
$var reg 1 r EX_MEM_MemRead $end
$var reg 1 s EX_MEM_MemWrite $end
$var reg 32 t EX_MEM_PC [31:0] $end
$var reg 1 u EX_MEM_RegWrite $end
$var reg 2 v EX_MEM_WDSel [1:0] $end
$var reg 32 w EX_MEM_alu_out [31:0] $end
$var reg 32 x EX_MEM_inst [31:0] $end
$var reg 5 y EX_MEM_rd [4:0] $end
$var reg 5 z EX_MEM_rs2 [4:0] $end
$var reg 32 { ID_EX_A [31:0] $end
$var reg 5 | ID_EX_ALUOp [4:0] $end
$var reg 1 } ID_EX_ALUSrc $end
$var reg 32 ~ ID_EX_B [31:0] $end
$var reg 3 !" ID_EX_DMType [2:0] $end
$var reg 2 "" ID_EX_GPRSel [1:0] $end
$var reg 1 #" ID_EX_MemRead $end
$var reg 1 $" ID_EX_MemWrite $end
$var reg 32 %" ID_EX_PC [31:0] $end
$var reg 1 &" ID_EX_RegWrite $end
$var reg 2 '" ID_EX_WDSel [1:0] $end
$var reg 32 (" ID_EX_imm [31:0] $end
$var reg 32 )" ID_EX_inst [31:0] $end
$var reg 5 *" ID_EX_rd [4:0] $end
$var reg 5 +" ID_EX_rs1 [4:0] $end
$var reg 5 ," ID_EX_rs2 [4:0] $end
$var reg 32 -" IF_ID_PC [31:0] $end
$var reg 32 ." IF_ID_inst [31:0] $end
$var reg 1 /" IF_ID_valid $end
$var reg 32 0" MEM_WB_PC [31:0] $end
$var reg 1 1" MEM_WB_RegWrite $end
$var reg 2 2" MEM_WB_WDSel [1:0] $end
$var reg 32 3" MEM_WB_alu_out [31:0] $end
$var reg 32 4" MEM_WB_dmem_out [31:0] $end
$var reg 32 5" MEM_WB_inst [31:0] $end
$var reg 5 6" MEM_WB_rd [4:0] $end
$var reg 32 7" WD [31:0] $end
$var reg 32 8" alu_in1 [31:0] $end
$var reg 32 9" alu_in2 [31:0] $end
$var reg 32 :" branch_operand_A [31:0] $end
$var reg 32 ;" branch_operand_B [31:0] $end
$scope module U_BranchUnit $end
$var wire 3 <" Funct3 [2:0] $end
$var wire 32 =" rs1_val [31:0] $end
$var wire 32 >" rs2_val [31:0] $end
$var reg 1 l BranchTaken $end
$upscope $end
$scope module U_EXT $end
$var wire 12 ?" bimm [11:0] $end
$var wire 12 @" iimm [11:0] $end
$var wire 5 A" iimm_shamt [4:0] $end
$var wire 20 B" jimm [19:0] $end
$var wire 12 C" simm [11:0] $end
$var wire 20 D" uimm [19:0] $end
$var wire 6 E" EXTOp [5:0] $end
$var reg 32 F" immout [31:0] $end
$upscope $end
$scope module U_Forwarding $end
$var wire 1 u EX_MEM_RegWrite $end
$var wire 5 G" EX_MEM_rd [4:0] $end
$var wire 5 H" ID_EX_rs1 [4:0] $end
$var wire 5 I" ID_EX_rs2 [4:0] $end
$var wire 1 @ IF_ID_is_Branch $end
$var wire 5 J" IF_ID_rs1 [4:0] $end
$var wire 5 K" IF_ID_rs2 [4:0] $end
$var wire 1 1" MEM_WB_RegWrite $end
$var wire 5 L" MEM_WB_rd [4:0] $end
$var reg 2 M" ForwardA [1:0] $end
$var reg 2 N" ForwardB [1:0] $end
$var reg 2 O" ForwardID_A [1:0] $end
$var reg 2 P" ForwardID_B [1:0] $end
$upscope $end
$scope module U_Hazard_Detect $end
$var wire 1 r EX_MEM_MemRead $end
$var wire 1 u EX_MEM_RegWrite $end
$var wire 5 Q" EX_MEM_rd [4:0] $end
$var wire 1 #" ID_EX_MemRead $end
$var wire 1 &" ID_EX_RegWrite $end
$var wire 5 R" ID_EX_rd [4:0] $end
$var wire 1 @ IF_ID_is_Branch $end
$var wire 5 S" IF_ID_rs1 [4:0] $end
$var wire 5 T" IF_ID_rs2 [4:0] $end
$var reg 1 C stall $end
$upscope $end
$scope module U_NPC $end
$var wire 1 l BranchTaken $end
$var wire 32 U" Branch_Addr [31:0] $end
$var wire 32 V" IF_ID_PC [31:0] $end
$var wire 32 W" JALR_Addr [31:0] $end
$var wire 32 X" JAL_Addr [31:0] $end
$var wire 32 Y" PCPLUS4 [31:0] $end
$var wire 32 Z" PC [31:0] $end
$var wire 3 [" NPCOp [2:0] $end
$var reg 32 \" NPC [31:0] $end
$upscope $end
$scope module U_PC $end
$var wire 32 ]" NPC [31:0] $end
$var wire 1 " clk $end
$var wire 1 ( rst $end
$var wire 1 C stall $end
$var reg 32 ^" PC [31:0] $end
$upscope $end
$scope module U_RF $end
$var wire 5 _" A1 [4:0] $end
$var wire 5 `" A2 [4:0] $end
$var wire 5 a" A3 [4:0] $end
$var wire 1 1" RFWr $end
$var wire 32 b" WD [31:0] $end
$var wire 1 c" bypass_for_rd1 $end
$var wire 1 d" bypass_for_rd2 $end
$var wire 1 " clk $end
$var wire 1 ( rst $end
$var wire 32 e" rf_read_data2 [31:0] $end
$var wire 32 f" rf_read_data1 [31:0] $end
$var wire 32 g" RD2 [31:0] $end
$var wire 32 h" RD1 [31:0] $end
$var integer 32 i" i [31:0] $end
$upscope $end
$scope module U_alu $end
$var wire 32 j" A [31:0] $end
$var wire 5 k" ALUOp [4:0] $end
$var wire 32 l" B [31:0] $end
$var wire 32 m" PC [31:0] $end
$var wire 1 T Zero $end
$var reg 32 n" C [31:0] $end
$upscope $end
$scope module U_ctrl $end
$var wire 1 n ALUSrc $end
$var wire 3 o" Funct3 [2:0] $end
$var wire 7 p" Funct7 [6:0] $end
$var wire 1 ^ MemRead $end
$var wire 1 ] MemWrite $end
$var wire 7 q" Op [6:0] $end
$var wire 1 V RegWrite $end
$var wire 1 r" i_add $end
$var wire 1 s" i_addi $end
$var wire 1 t" i_and $end
$var wire 1 u" i_andi $end
$var wire 1 v" i_beq $end
$var wire 1 w" i_bge $end
$var wire 1 x" i_bgeu $end
$var wire 1 y" i_blt $end
$var wire 1 z" i_bltu $end
$var wire 1 {" i_bne $end
$var wire 1 |" i_lb $end
$var wire 1 }" i_lbu $end
$var wire 1 ~" i_lh $end
$var wire 1 !# i_lhu $end
$var wire 1 "# i_lw $end
$var wire 1 ## i_or $end
$var wire 1 $# i_ori $end
$var wire 1 %# i_sb $end
$var wire 1 &# i_sh $end
$var wire 1 '# i_sll $end
$var wire 1 (# i_slli $end
$var wire 1 )# i_slt $end
$var wire 1 *# i_slti $end
$var wire 1 +# i_sltiu $end
$var wire 1 ,# i_sltu $end
$var wire 1 -# i_sra $end
$var wire 1 .# i_srai $end
$var wire 1 /# i_srl $end
$var wire 1 0# i_srli $end
$var wire 1 1# i_sub $end
$var wire 1 2# i_sw $end
$var wire 1 3# i_xor $end
$var wire 1 4# i_xori $end
$var wire 1 5# utype $end
$var wire 1 6# stype $end
$var wire 1 7# rtype $end
$var wire 1 8# load $end
$var wire 1 9# jalr $end
$var wire 1 :# jal $end
$var wire 1 ;# itype $end
$var wire 1 <# btype $end
$var wire 1 =# auipc $end
$var wire 2 ># WDSel [1:0] $end
$var wire 3 ?# NPCOp [2:0] $end
$var wire 2 @# GPRSel [1:0] $end
$var wire 6 A# EXTOp [5:0] $end
$var wire 3 B# DMType [2:0] $end
$var wire 5 C# ALUOp [4:0] $end
$upscope $end
$upscope $end
$upscope $end
$upscope $end
$enddefinitions $end
$comment Show the parameter values. $end
$dumpall
$end
#0
$dumpvars
bx C#
bx B#
bx A#
bx0 @#
bx ?#
bx >#
x=#
x<#
x;#
x:#
x9#
x8#
x7#
x6#
x5#
x4#
x3#
x2#
x1#
x0#
x/#
x.#
x-#
x,#
x+#
x*#
x)#
x(#
x'#
x&#
x%#
x$#
x##
x"#
x!#
x~"
x}"
x|"
x{"
xz"
xy"
xx"
xw"
xv"
xu"
xt"
xs"
xr"
bx q"
bx p"
bx o"
bx n"
bx m"
bx l"
bx k"
bx j"
bx i"
bx h"
bx g"
bx f"
bx e"
xd"
xc"
bx b"
bx a"
bx `"
bx _"
bx ^"
bx ]"
bx \"
bx ["
bx Z"
bx Y"
bx X"
bx0 W"
bx V"
bx U"
bx T"
bx S"
bx R"
bx Q"
bx P"
bx O"
bx N"
bx M"
bx L"
bx K"
bx J"
bx I"
bx H"
bx G"
bx F"
bx E"
bx D"
bx C"
bx B"
bx A"
bx @"
bx ?"
bx >"
bx ="
bx <"
bx ;"
bx :"
bx 9"
bx 8"
bx 7"
bx 6"
bx 5"
bx 4"
bx 3"
bx 2"
x1"
bx 0"
x/"
bx ."
bx -"
bx ,"
bx +"
bx *"
bx )"
bx ("
bx '"
x&"
bx %"
x$"
x#"
bx0 ""
bx !"
bx ~
x}
bx |
bx {
bx z
bx y
bx x
bx w
bx v
xu
bx t
xs
xr
bx q
bx p
bx o
xn
bx m
xl
bx k
bx j
bx i
bx h
bx g
bx f
bx e
bx d
bx c
bx0 b
bx a
bx `
bx _
x^
x]
bx \
bx [
bx Z
bx Y
bx X
bx W
xV
bx U
xT
bx S
bx R
bx Q
xP
xO
xN
bx M
bx L
bx K
bx J
bx I
bx H
bx G
bx F
bx E
bx D
xC
bx B
bx A
x@
bx ?
x>
bx =
bx0 <
x;
bx :
bx 9
bx 8
bx 7
bx 6
bx 5
bx 4
bx 3
bx 2
bx 1
bx 0
x/
bx .
bx -
bx ,
bx +
bx *
bx )
0(
bx '
b10 &
b0 %
1$
bx #
1"
bx !
$end
#5
b0 <
b0 W"
b0 _
b0 X"
b0 k
b0 U"
b0 J
b0 F"
b0 7"
b0 b"
b11 o
b11 C#
0N
0V
0n
b100 \
b100 \"
b100 ]"
1l
b0 :"
b0 ="
b0 ;"
b0 >"
b0 S
b0 l"
1T
b0 R
b0 n"
0;
0@
b0 X
b0 h"
b0 W
b0 g"
0>
b0 3
b0 9"
b0 =
b0 j"
b0 8"
0O
b0 b
b0 @#
b0 [
b0 ["
b0 ?#
b0 U
b0 >#
0P
0r"
01#
0'#
0)#
0,#
03#
0/#
0-#
0##
0t"
0(#
00#
0.#
0s"
0*#
0+#
04#
0$#
0u"
0v"
0{"
0y"
0w"
0z"
0x"
0|"
0~"
0"#
0}"
0!#
0%#
0&#
02#
b0 j
b0 B#
b0 f"
0c"
b0 e"
0d"
b0 e
b0 P"
b0 f
b0 O"
b0 ,
b0 2
b0 :
b0 M
b0 1
b0 g
b0 N"
b0 h
b0 M"
0C
b0 K
b0 A"
b0 L
b0 @"
b0 D
b0 C"
b0 Q
b0 ?"
b0 B
b0 D"
b0 I
b0 B"
0=#
07#
0;#
0]
06#
0<#
05#
b0 i
b0 E"
b0 A#
0:#
09#
0^
08#
b0 Z
b0 q"
b0 c
b0 p"
b0 d
b0 <"
b0 o"
b0 F
b0 J"
b0 S"
b0 _"
b0 E
b0 K"
b0 T"
b0 `"
b0 H
b0 `
b0 a
b100000000001010010011 *
b100000000001010010011 7
b100000000001010010011 ?
b0 6
b0 5"
b0 0"
b0 2"
01"
b0 6"
b0 L"
b0 a"
b0 4"
b0 3"
0r
b0 0
b0 4
b0 8
b0 q
b0 x
b0 v
0/
0s
0u
b0 t
b0 y
b0 G"
b0 Q"
b0 p
b0 -
b0 m
b0 w
b0 z
b0 !"
b0 |
b0 k"
b0 ""
b0 '"
0}
0#"
0$"
0&"
b0 )"
b0 ,"
b0 I"
b0 +"
b0 H"
b0 *"
b0 R"
b0 ("
b0 ~
b0 {
b0 %"
b0 m"
b0 -"
b0 V"
b0 ."
b100 Y"
b0 .
b0 Y
b0 Z"
b0 ^"
b100000 i"
1(
0$
#25
0(
1$
#50
0"
#100
b1 _
b1 X"
b1 k
b1 U"
b1 J
b1 F"
1N
1n
1V
b10000 i
b10000 E"
b10000 A#
1s"
b1000 \
b1000 \"
b1000 ]"
b1000000000001100010011 *
b1000000000001100010011 7
b1000000000001100010011 ?
b1 6
b1 K
b1 A"
b1 L
b1 @"
b101 D
b101 C"
b10000000010 Q
b10000000010 ?"
b100000000 B
b100000000 D"
b10000000000 I
b10000000000 B"
1;#
b10011 Z
b10011 q"
b1 E
b1 K"
b1 T"
b1 `"
b101 H
b1 `
b100000000 a
b1000 Y"
b100 .
b100 Y
b100 Z"
b100 ^"
bx 4"
b11 |
b11 k"
1/"
b100000000001010010011 ."
b1 %
1"
#150
0"
#200
b10 <
b10 W"
b10 J
b10 F"
0T
b1 R
b1 n"
b1 S
b1 l"
b10 K
b10 A"
b10 L
b10 @"
b110 D
b110 C"
b11 Q
b11 ?"
b1000000000 B
b1000000000 D"
b1 I
b1 B"
b10 E
b10 K"
b10 T"
b10 `"
b110 H
b10 `
b1000000000 a
b1100 \
b1100 \"
b1100 ]"
b11000101000001110110011 *
b11000101000001110110011 7
b11000101000001110110011 ?
b10 6
1}
1&"
b1 ,"
b1 I"
b101 *"
b101 R"
b1 ("
b100000000001010010011 )"
b1000000000001100010011 ."
b110 k
b110 U"
b110 _
b110 X"
b100 -"
b100 V"
b1100 Y"
b1000 .
b1000 Y
b1000 Z"
b1000 ^"
b10 %
1"
#250
0"
#300
b0 <
b0 W"
b0 J
b0 F"
0n
1r"
b0 i
b0 E"
b0 A#
b10 R
b10 n"
0s"
b11000111000010000110011 *
b11000111000010000110011 7
b11000111000010000110011 ?
b11 6
b1 1
b10 S
b10 l"
b110 K
b110 A"
b110 L
b110 @"
b111 D
b111 C"
b10000000011 Q
b10000000011 ?"
b11000101000 B
b11000101000 D"
b10100000000000011 I
b10100000000000011 B"
17#
0;#
b110011 Z
b110011 q"
b101 F
b101 J"
b101 S"
b101 _"
b110 E
b110 K"
b110 T"
b110 `"
b111 H
b110 `
b11000101000 a
b10000 \
b10000 \"
b10000 ]"
b10000 Y"
b1100 .
b1100 Y
b1100 Z"
b1100 ^"
1u
b101 y
b101 G"
b101 Q"
b1 -
b1 m
b1 w
b100000000001010010011 x
b1 z
b10 ,"
b10 I"
b110 *"
b110 R"
b10 ("
b1000000000001100010011 )"
b100 %"
b100 m"
b11000101000001110110011 ."
b1000 k
b1000 U"
b1000 _
b1000 X"
b1000 -"
b1000 V"
b11 %
1"
#350
0"
#400
b1 =
b1 j"
b1 8"
b1 7"
b1 b"
0T
b11 R
b11 n"
b10 9"
b10 1
b1 g
b1 N"
b10 h
b10 M"
b10 S
b10 l"
b1000 D
b1000 C"
b100 Q
b100 ?"
b11000111000 B
b11000111000 D"
b11100000000000011 I
b11100000000000011 B"
b111 F
b111 J"
b111 S"
b111 _"
b1000 H
b11000111000 a
b10100 \
b10100 \"
b10100 ]"
b100000000010000000100011 *
b100000000010000000100011 7
b100000000010000000100011 ?
b100 6
11"
b101 6"
b101 L"
b101 a"
b1 3"
b100000000001010010011 5"
b110 y
b110 G"
b110 Q"
b10 -
b10 m
b10 w
b1000000000001100010011 x
b100 t
b10 z
0}
b110 ,"
b110 I"
b101 +"
b101 H"
b111 *"
b111 R"
b0 ("
b11000101000001110110011 )"
b1000 %"
b1000 m"
b11000111000010000110011 ."
b1100 k
b1100 U"
b1100 _
b1100 X"
b1100 -"
b1100 V"
b10100 Y"
b10000 .
b10000 Y
b10000 Z"
b10000 ^"
b100 %
1"
#450
0"
#500
b10 7"
b10 b"
0N
0V
1n
0r"
b10 S
b10 l"
b101 R
b101 n"
1O
0l
12#
b10 j
b10 B#
b10010010000011 *
b10010010000011 7
b10010010000011 ?
b101 6
b10 g
b10 N"
b10 ,
b10 2
b10 :
b10 M
b10 9"
b11 =
b11 j"
b11 8"
b11 1
b1 h
b1 M"
b1000 K
b1000 A"
b1000 L
b1000 @"
b0 D
b0 C"
b0 Q
b0 ?"
b100000000010 B
b100000000010 D"
b1000000000100 I
b1000000000100 B"
07#
b1000 i
b1000 E"
b1000 A#
1]
16#
b100011 Z
b100011 q"
b10 d
b10 <"
b10 o"
b0 F
b0 J"
b0 S"
b0 _"
b1000 E
b1000 K"
b1000 T"
b1000 `"
b0 H
b1000 `
b100000000010 a
b11000 \
b11000 \"
b11000 ]"
b11000 Y"
b10100 .
b10100 Y
b10100 Z"
b10100 ^"
b110 6"
b110 L"
b110 a"
b10 3"
b1000000000001100010011 5"
b100 0"
b111 y
b111 G"
b111 Q"
b10 p
b11 -
b11 m
b11 w
b11000101000001110110011 x
b1000 t
b110 z
b111 +"
b111 H"
b1000 *"
b1000 R"
b11000111000010000110011 )"
b1100 %"
b1100 m"
b100000000010000000100011 ."
b10000 k
b10000 U"
b10000 _
b10000 X"
b10000 -"
b10000 V"
b101 %
1"
#550
0"
#600
b11 7"
b11 b"
1N
b1 3
1T
b0 R
b0 n"
0O
02#
b1 U
b1 >#
1P
1V
1"#
b101 9"
b0 =
b0 j"
b0 8"
b101 1
b0 S
b0 l"
b1 g
b1 N"
b0 h
b0 M"
b0 K
b0 A"
b0 L
b0 @"
b1001 D
b1001 C"
b10000000100 Q
b10000000100 ?"
b10 B
b10 D"
b1000000000000 I
b1000000000000 B"
b10000 i
b10000 E"
b10000 A#
0]
06#
1^
18#
b11 Z
b11 q"
b0 E
b0 K"
b0 T"
b0 `"
b1001 H
b0 `
b10 a
b11100 \
b11100 \"
b11100 ]"
b100100000010001000100011 *
b100100000010001000100011 7
b100100000010001000100011 ?
b110 6
b111 6"
b111 L"
b111 a"
b11 3"
b11000101000001110110011 5"
b1000 0"
b1000 y
b1000 G"
b1000 Q"
b101 -
b101 m
b101 w
b11000111000010000110011 x
b1100 t
b10 !"
1}
1$"
0&"
b1000 ,"
b1000 I"
b0 +"
b0 H"
b0 *"
b0 R"
b100000000010000000100011 )"
b10000 %"
b10000 m"
b10010010000011 ."
b10100 k
b10100 U"
b10100 _
b10100 X"
b10100 -"
b10100 V"
b11100 Y"
b11000 .
b11000 Y
b11000 Z"
b11000 ^"
b110 %
1"
#650
0"
#700
b100 <
b100 W"
b100 J
b100 F"
b101 7"
b101 b"
1>
b0 3
0N
12#
b0 U
b0 >#
0P
1n
0V
0"#
b10000000010010100000011 *
b10000000010010100000011 7
b10000000010010100000011 ?
b111 6
b101 ,
b101 2
b101 :
b101 M
b0 9"
b0 1
b0 g
b0 N"
1C
b1001 K
b1001 A"
b1001 L
b1001 @"
b100 D
b100 C"
b10 Q
b10 ?"
b100100000010 B
b100100000010 D"
b1010000000100 I
b1010000000100 B"
b1000 i
b1000 E"
b1000 A#
1]
16#
0^
08#
b100011 Z
b100011 q"
b1001 E
b1001 K"
b1001 T"
b1001 `"
b100 H
b1001 `
b100100000010 a
b100000 \
b100000 \"
b100000 ]"
b100000 Y"
b11100 .
b11100 Y
b11100 Z"
b11100 ^"
b1000 6"
b1000 L"
b1000 a"
b101 3"
b11000111000010000110011 5"
b1100 0"
b10 0
b10 4
b10 8
b10 q
1/
1s
0u
b0 y
b0 G"
b0 Q"
b101 p
b0 -
b0 m
b0 w
b100000000010000000100011 x
b10000 t
b1000 z
b1 '"
1#"
0$"
1&"
b0 ,"
b0 I"
b1001 *"
b1001 R"
b10010010000011 )"
b10100 %"
b10100 m"
b100100000010001000100011 ."
b11100 k
b11100 U"
b11100 _
b11100 X"
b11000 -"
b11000 V"
b111 %
1"
#750
0"
#800
b101 +
b101 5
b101 9
b0 7"
b0 b"
b100 <
b100 W"
b0 :"
b0 ="
0>
b0 X
b0 h"
1O
0T
b100 R
b100 n"
0c"
b0 ,
b0 2
b0 :
b0 M
b1 g
b1 N"
0C
b100 S
b100 l"
01"
b0 6"
b0 L"
b0 a"
b0 3"
b100000000010000000100011 5"
b10000 0"
b1 v
1r
0/
0s
1u
b1001 y
b1001 G"
b1001 Q"
b0 p
b10010010000011 x
b10100 t
b0 z
b0 '"
0#"
0&"
b1001 ,"
b1001 I"
b100 *"
b100 R"
b100 ("
b100100000010001000100011 )"
b11000 %"
b11000 m"
b1000 %
1"
#850
0"
#900
bx +
bx 5
bx 9
b101 7"
b101 b"
1N
b1 3
0O
02#
b1 U
b1 >#
1P
1V
1"#
b1100000000001010010011 *
b1100000000001010010011 7
b1100000000001010010011 ?
b1000 6
b10 g
b10 N"
b101 9"
b100 1
b100 K
b100 A"
b100 L
b100 @"
b1010 D
b1010 C"
b101 Q
b101 ?"
b10000000010 B
b10000000010 D"
b1000000000010 I
b1000000000010 B"
b10000 i
b10000 E"
b10000 A#
0]
06#
1^
18#
b11 Z
b11 q"
b100 E
b100 K"
b100 T"
b100 `"
b1010 H
b100 `
b10000000010 a
b100100 \
b100100 \"
b100100 ]"
b100100 Y"
b100000 .
b100000 Y
b100000 Z"
b100000 ^"
b1 2"
11"
b1001 6"
b1001 L"
b1001 a"
b101 4"
b10010010000011 5"
b10100 0"
b0 v
0r
0u
b100 y
b100 G"
b100 Q"
b100 -
b100 m
b100 w
b100100000010001000100011 x
b11000 t
b1001 z
1$"
b10000000010010100000011 ."
b100000 k
b100000 U"
b100000 _
b100000 X"
b11100 -"
b11100 V"
b1001 %
1"
#950
0"
#1000
b10 <
b10 W"
b11 J
b11 F"
b100 7"
b100 b"
1N
b0 9"
b0 U
b0 >#
b10000 i
b10000 E"
b10000 A#
0P
1n
1V
1l
1s"
0"#
b0 j
b0 B#
b101 ,
b101 2
b101 :
b101 M
b0 g
b0 N"
b11 K
b11 A"
b11 L
b11 @"
b101 D
b101 C"
b10000000010 Q
b10000000010 ?"
b1100000000 B
b1100000000 D"
b10000000001 I
b10000000001 B"
1;#
0^
08#
b10011 Z
b10011 q"
b0 d
b0 <"
b0 o"
b11 E
b11 K"
b11 T"
b11 `"
b101 H
b11 `
b1100000000 a
b101000 \
b101000 \"
b101000 ]"
b1100000000001100010011 *
b1100000000001100010011 7
b1100000000001100010011 ?
b1001 6
b0 2"
01"
b100 6"
b100 L"
b100 a"
bx 4"
b100 3"
b100100000010001000100011 5"
b11000 0"
1/
1s
b101 p
b1 '"
1#"
0$"
1&"
b100 ,"
b100 I"
b1010 *"
b1010 R"
b10000000010010100000011 )"
b11100 %"
b11100 m"
b1100000000001010010011 ."
b100011 k
b100011 U"
b100011 _
b100011 X"
b100000 -"
b100000 V"
b101000 Y"
b100100 .
b100100 Y
b100100 Z"
b100100 ^"
b1010 %
1"
#1025
b11 !
b11 )
b11 G
b111 #
b111 '
b111 A
#1050
0"
#1100
b101 +
b101 5
b101 9
b11 R
b11 n"
b10011 *
b10011 7
b10011 ?
b1010 6
b0 ,
b0 2
b0 :
b0 M
b11 S
b11 l"
b110 D
b110 C"
b11 Q
b11 ?"
b110 H
b101100 \
b101100 \"
b101100 ]"
b101100 Y"
b101000 .
b101000 Y
b101000 Z"
b101000 ^"
b1 v
1r
0/
0s
1u
b1010 y
b1010 G"
b1010 Q"
b0 p
b10000000010010100000011 x
b11100 t
b100 z
b0 !"
b0 '"
0#"
b11 ,"
b11 I"
b101 *"
b101 R"
b11 ("
b1100000000001010010011 )"
b100000 %"
b100000 m"
b1100000000001100010011 ."
b100111 k
b100111 U"
b100111 _
b100111 X"
b100100 -"
b100100 V"
b1011 %
1"
#1150
0"
#1200
b0 <
b0 W"
b0 J
b0 F"
b101 7"
b101 b"
b0 +
b0 5
b0 9
b0 3
b11 1
b0 K
b0 A"
b0 L
b0 @"
b0 D
b0 C"
b0 Q
b0 ?"
b0 B
b0 D"
b0 I
b0 B"
b0 E
b0 K"
b0 T"
b0 `"
b0 H
b0 `
b0 a
b110000 \
b110000 \"
b110000 ]"
b11000101000011001100011 *
b11000101000011001100011 7
b11000101000011001100011 ?
b1011 6
b1 2"
11"
b1010 6"
b1010 L"
b1010 a"
b101 4"
b10000000010010100000011 5"
b11100 0"
b0 0
b0 4
b0 8
b0 q
b0 v
0r
b101 y
b101 G"
b101 Q"
b11 -
b11 m
b11 w
b1100000000001010010011 x
b100000 t
b11 z
b110 *"
b110 R"
b1100000000001100010011 )"
b100100 %"
b100100 m"
b10011 ."
b101000 k
b101000 U"
b101000 _
b101000 X"
b101000 -"
b101000 V"
b110000 Y"
b101100 .
b101100 Y
b101100 Z"
b101100 ^"
b1100 %
1"
#1250
0"
#1300
b1100 J
b1100 F"
b11 7"
b11 b"
b10010 o
b10010 C#
0N
0n
0V
b1110 <
b1110 W"
1l
b1 [
b1 ["
b1 ?#
b11 :"
b11 ="
b11 ;"
b11 >"
1;
b1 e
b1 P"
b10 f
b10 O"
b11 X
b11 h"
b10 W
b10 g"
1T
b0 R
b0 n"
1@
0s"
1v"
b1 f"
1c"
b10 e"
b101000000000010100010011 *
b101000000000010100010011 7
b101000000000010100010011 ?
b1100 6
b0 S
b0 l"
b110 K
b110 A"
b110 L
b110 @"
b1100 D
b1100 C"
b110 Q
b110 ?"
b11000101000 B
b11000101000 D"
b10100000000000011 I
b10100000000000011 B"
0;#
b100 i
b100 E"
b100 A#
1<#
b1100011 Z
b1100011 q"
b101 F
b101 J"
b101 S"
b101 _"
b110 E
b110 K"
b110 T"
b110 `"
b1100 H
b110 `
b11000101000 a
b111000 \
b111000 \"
b111000 ]"
b110100 Y"
b110000 .
b110000 Y
b110000 Z"
b110000 ^"
b0 2"
b101 6"
b101 L"
b101 a"
b0 4"
b11 3"
b1100000000001010010011 5"
b100000 0"
b110 y
b110 G"
b110 Q"
b1100000000001100010011 x
b100100 t
b0 ,"
b0 I"
b0 *"
b0 R"
b0 ("
b10011 )"
b101000 %"
b101000 m"
b11000101000011001100011 ."
b111000 k
b111000 U"
b111000 _
b111000 X"
b101100 -"
b101100 V"
b1101 %
1"
#1350
0"
