sim3.vcd
$date
	Sat Jul 05 10:51:36 2025
$end
$version
	Icarus Verilog
$end
$timescale
	1s
$end
$scope module sccomp_tb $end
$var wire 32 ! reg_data [31:0] $end
$var reg 1 " clk $end
$var reg 5 # reg_sel [4:0] $end
$var reg 1 $ rstn $end
$var integer 32 % counter [31:0] $end
$var integer 32 & foutput [31:0] $end
$scope module U_SCCOMP $end
$var wire 1 " clk $end
$var wire 5 ' reg_sel [4:0] $end
$var wire 1 ( rst $end
$var wire 1 $ rstn $end
$var wire 32 ) reg_data [31:0] $end
$var wire 32 * instr [31:0] $end
$var wire 32 + dm_dout [31:0] $end
$var wire 32 , dm_din [31:0] $end
$var wire 32 - dm_addr [31:0] $end
$var wire 32 . PC [31:0] $end
$var wire 1 / MemWrite $end
$var wire 3 0 DMType [2:0] $end
$scope module U_DM $end
$var wire 9 1 addr [8:0] $end
$var wire 1 " clk $end
$var wire 32 2 din [31:0] $end
$var wire 7 3 Num [8:2] $end
$var wire 1 / DMWr $end
$var wire 3 4 DMType [2:0] $end
$var reg 32 5 dout [31:0] $end
$upscope $end
$scope module U_IM $end
$var wire 8 6 addr [9:2] $end
$var wire 32 7 dout [31:0] $end
$upscope $end
$scope module U_SCPU $end
$var wire 3 8 DMType [2:0] $end
$var wire 32 9 Data_in [31:0] $end
$var wire 32 : Data_out [31:0] $end
$var wire 1 ; Flush $end
$var wire 32 < JALR_Addr [31:0] $end
$var wire 1 / MemWrite $end
$var wire 32 = alu_A [31:0] $end
$var wire 1 " clk $end
$var wire 1 > forward_WB_to_MEM $end
$var wire 32 ? inst_in [31:0] $end
$var wire 1 @ is_Branch $end
$var wire 5 A reg_sel [4:0] $end
$var wire 1 ( reset $end
$var wire 20 B uimm [19:0] $end
$var wire 1 C stall $end
$var wire 12 D simm [11:0] $end
$var wire 5 E rs2 [4:0] $end
$var wire 5 F rs1 [4:0] $end
$var wire 32 G reg_data [31:0] $end
$var wire 5 H rd [4:0] $end
$var wire 20 I jimm [19:0] $end
$var wire 32 J immout [31:0] $end
$var wire 5 K iimm_shamt [4:0] $end
$var wire 12 L iimm [11:0] $end
$var wire 32 M final_data_to_memory [31:0] $end
$var wire 1 N final_ID_EX_RegWrite $end
$var wire 1 O final_ID_EX_MemWrite $end
$var wire 1 P final_ID_EX_MemRead $end
$var wire 12 Q bimm [11:0] $end
$var wire 32 R aluout [31:0] $end
$var wire 32 S alu_B [31:0] $end
$var wire 1 T Zero $end
$var wire 2 U WDSel [1:0] $end
$var wire 1 V RegWrite $end
$var wire 32 W RD2 [31:0] $end
$var wire 32 X RD1 [31:0] $end
$var wire 32 Y PC_out [31:0] $end
$var wire 7 Z Op [6:0] $end
$var wire 3 [ NPCOp [2:0] $end
$var wire 32 \ NPC [31:0] $end
$var wire 1 ] MemWrite_ctrl $end
$var wire 1 ^ MemRead_crtl $end
$var wire 32 _ JAL_Addr [31:0] $end
$var wire 12 ` Imm12 [11:0] $end
$var wire 20 a IMM [19:0] $end
$var wire 2 b GPRSel [1:0] $end
$var wire 7 c Funct7 [6:0] $end
$var wire 3 d Funct3 [2:0] $end
$var wire 2 e ForwardID_B [1:0] $end
$var wire 2 f ForwardID_A [1:0] $end
$var wire 2 g ForwardB [1:0] $end
$var wire 2 h ForwardA [1:0] $end
$var wire 6 i EXTOp [5:0] $end
$var wire 3 j DMType_ctrl [2:0] $end
$var wire 32 k Branch_Addr [31:0] $end
$var wire 1 l BranchTaken $end
$var wire 32 m Addr_out [31:0] $end
$var wire 1 n ALUSrc $end
$var wire 5 o ALUOp [4:0] $end
$var reg 32 p EX_MEM_B [31:0] $end
$var reg 3 q EX_MEM_DMType [2:0] $end
$var reg 1 r EX_MEM_MemRead $end
$var reg 1 s EX_MEM_MemWrite $end
$var reg 32 t EX_MEM_PC [31:0] $end
$var reg 1 u EX_MEM_RegWrite $end
$var reg 2 v EX_MEM_WDSel [1:0] $end
$var reg 32 w EX_MEM_alu_out [31:0] $end
$var reg 32 x EX_MEM_inst [31:0] $end
$var reg 5 y EX_MEM_rd [4:0] $end
$var reg 5 z EX_MEM_rs2 [4:0] $end
$var reg 32 { ID_EX_A [31:0] $end
$var reg 5 | ID_EX_ALUOp [4:0] $end
$var reg 1 } ID_EX_ALUSrc $end
$var reg 32 ~ ID_EX_B [31:0] $end
$var reg 3 !" ID_EX_DMType [2:0] $end
$var reg 2 "" ID_EX_GPRSel [1:0] $end
$var reg 1 #" ID_EX_MemRead $end
$var reg 1 $" ID_EX_MemWrite $end
$var reg 32 %" ID_EX_PC [31:0] $end
$var reg 1 &" ID_EX_RegWrite $end
$var reg 2 '" ID_EX_WDSel [1:0] $end
$var reg 32 (" ID_EX_imm [31:0] $end
$var reg 32 )" ID_EX_inst [31:0] $end
$var reg 5 *" ID_EX_rd [4:0] $end
$var reg 5 +" ID_EX_rs1 [4:0] $end
$var reg 5 ," ID_EX_rs2 [4:0] $end
$var reg 32 -" IF_ID_PC [31:0] $end
$var reg 32 ." IF_ID_inst [31:0] $end
$var reg 1 /" IF_ID_valid $end
$var reg 32 0" MEM_WB_PC [31:0] $end
$var reg 1 1" MEM_WB_RegWrite $end
$var reg 2 2" MEM_WB_WDSel [1:0] $end
$var reg 32 3" MEM_WB_alu_out [31:0] $end
$var reg 32 4" MEM_WB_dmem_out [31:0] $end
$var reg 32 5" MEM_WB_inst [31:0] $end
$var reg 5 6" MEM_WB_rd [4:0] $end
$var reg 32 7" WD [31:0] $end
$var reg 32 8" alu_in1 [31:0] $end
$var reg 32 9" alu_in2 [31:0] $end
$var reg 32 :" branch_operand_A [31:0] $end
$var reg 32 ;" branch_operand_B [31:0] $end
$scope module U_BranchUnit $end
$var wire 3 <" Funct3 [2:0] $end
$var wire 32 =" rs1_val [31:0] $end
$var wire 32 >" rs2_val [31:0] $end
$var reg 1 l BranchTaken $end
$upscope $end
$scope module U_EXT $end
$var wire 12 ?" bimm [11:0] $end
$var wire 12 @" iimm [11:0] $end
$var wire 5 A" iimm_shamt [4:0] $end
$var wire 20 B" jimm [19:0] $end
$var wire 12 C" simm [11:0] $end
$var wire 20 D" uimm [19:0] $end
$var wire 6 E" EXTOp [5:0] $end
$var reg 32 F" immout [31:0] $end
$upscope $end
$scope module U_Forwarding $end
$var wire 1 u EX_MEM_RegWrite $end
$var wire 5 G" EX_MEM_rd [4:0] $end
$var wire 5 H" ID_EX_rs1 [4:0] $end
$var wire 5 I" ID_EX_rs2 [4:0] $end
$var wire 1 @ IF_ID_is_Branch $end
$var wire 5 J" IF_ID_rs1 [4:0] $end
$var wire 5 K" IF_ID_rs2 [4:0] $end
$var wire 1 1" MEM_WB_RegWrite $end
$var wire 5 L" MEM_WB_rd [4:0] $end
$var reg 2 M" ForwardA [1:0] $end
$var reg 2 N" ForwardB [1:0] $end
$var reg 2 O" ForwardID_A [1:0] $end
$var reg 2 P" ForwardID_B [1:0] $end
$upscope $end
$scope module U_Hazard_Detect $end
$var wire 1 r EX_MEM_MemRead $end
$var wire 1 u EX_MEM_RegWrite $end
$var wire 5 Q" EX_MEM_rd [4:0] $end
$var wire 1 #" ID_EX_MemRead $end
$var wire 1 &" ID_EX_RegWrite $end
$var wire 5 R" ID_EX_rd [4:0] $end
$var wire 1 @ IF_ID_is_Branch $end
$var wire 5 S" IF_ID_rs1 [4:0] $end
$var wire 5 T" IF_ID_rs2 [4:0] $end
$var reg 1 C stall $end
$upscope $end
$scope module U_NPC $end
$var wire 1 l BranchTaken $end
$var wire 32 U" Branch_Addr [31:0] $end
$var wire 32 V" IF_ID_PC [31:0] $end
$var wire 32 W" JALR_Addr [31:0] $end
$var wire 32 X" JAL_Addr [31:0] $end
$var wire 32 Y" PCPLUS4 [31:0] $end
$var wire 32 Z" PC [31:0] $end
$var wire 3 [" NPCOp [2:0] $end
$var reg 32 \" NPC [31:0] $end
$upscope $end
$scope module U_PC $end
$var wire 32 ]" NPC [31:0] $end
$var wire 1 " clk $end
$var wire 1 ( rst $end
$var wire 1 C stall $end
$var reg 32 ^" PC [31:0] $end
$upscope $end
$scope module U_RF $end
$var wire 5 _" A1 [4:0] $end
$var wire 5 `" A2 [4:0] $end
$var wire 5 a" A3 [4:0] $end
$var wire 1 1" RFWr $end
$var wire 32 b" WD [31:0] $end
$var wire 1 c" bypass_for_rd1 $end
$var wire 1 d" bypass_for_rd2 $end
$var wire 1 " clk $end
$var wire 1 ( rst $end
$var wire 32 e" rf_read_data2 [31:0] $end
$var wire 32 f" rf_read_data1 [31:0] $end
$var wire 32 g" RD2 [31:0] $end
$var wire 32 h" RD1 [31:0] $end
$var integer 32 i" i [31:0] $end
$upscope $end
$scope module U_alu $end
$var wire 32 j" A [31:0] $end
$var wire 5 k" ALUOp [4:0] $end
$var wire 32 l" B [31:0] $end
$var wire 32 m" PC [31:0] $end
$var wire 1 T Zero $end
$var reg 32 n" C [31:0] $end
$upscope $end
$scope module U_ctrl $end
$var wire 1 n ALUSrc $end
$var wire 3 o" Funct3 [2:0] $end
$var wire 7 p" Funct7 [6:0] $end
$var wire 1 ^ MemRead $end
$var wire 1 ] MemWrite $end
$var wire 7 q" Op [6:0] $end
$var wire 1 V RegWrite $end
$var wire 1 r" i_add $end
$var wire 1 s" i_addi $end
$var wire 1 t" i_and $end
$var wire 1 u" i_andi $end
$var wire 1 v" i_beq $end
$var wire 1 w" i_bge $end
$var wire 1 x" i_bgeu $end
$var wire 1 y" i_blt $end
$var wire 1 z" i_bltu $end
$var wire 1 {" i_bne $end
$var wire 1 |" i_lb $end
$var wire 1 }" i_lbu $end
$var wire 1 ~" i_lh $end
$var wire 1 !# i_lhu $end
$var wire 1 "# i_lw $end
$var wire 1 ## i_or $end
$var wire 1 $# i_ori $end
$var wire 1 %# i_sb $end
$var wire 1 &# i_sh $end
$var wire 1 '# i_sll $end
$var wire 1 (# i_slli $end
$var wire 1 )# i_slt $end
$var wire 1 *# i_slti $end
$var wire 1 +# i_sltiu $end
$var wire 1 ,# i_sltu $end
$var wire 1 -# i_sra $end
$var wire 1 .# i_srai $end
$var wire 1 /# i_srl $end
$var wire 1 0# i_srli $end
$var wire 1 1# i_sub $end
$var wire 1 2# i_sw $end
$var wire 1 3# i_xor $end
$var wire 1 4# i_xori $end
$var wire 1 5# utype $end
$var wire 1 6# stype $end
$var wire 1 7# rtype $end
$var wire 1 8# load $end
$var wire 1 9# jalr $end
$var wire 1 :# jal $end
$var wire 1 ;# itype $end
$var wire 1 <# btype $end
$var wire 1 =# auipc $end
$var wire 2 ># WDSel [1:0] $end
$var wire 3 ?# NPCOp [2:0] $end
$var wire 2 @# GPRSel [1:0] $end
$var wire 6 A# EXTOp [5:0] $end
$var wire 3 B# DMType [2:0] $end
$var wire 5 C# ALUOp [4:0] $end
$upscope $end
$upscope $end
$upscope $end
$upscope $end
$enddefinitions $end
$comment Show the parameter values. $end
$dumpall
$end
#0
$dumpvars
bx C#
bx B#
bx A#
bx0 @#
bx ?#
bx >#
x=#
x<#
x;#
x:#
x9#
x8#
x7#
x6#
x5#
x4#
x3#
x2#
x1#
x0#
x/#
x.#
x-#
x,#
x+#
x*#
x)#
x(#
x'#
x&#
x%#
x$#
x##
x"#
x!#
x~"
x}"
x|"
x{"
xz"
xy"
xx"
xw"
xv"
xu"
xt"
xs"
xr"
bx q"
bx p"
bx o"
bx n"
bx m"
bx l"
bx k"
bx j"
bx i"
bx h"
bx g"
bx f"
bx e"
xd"
xc"
bx b"
bx a"
bx `"
bx _"
bx ^"
bx ]"
bx \"
bx ["
bx Z"
bx Y"
bx X"
bx0 W"
bx V"
bx U"
bx T"
bx S"
bx R"
bx Q"
bx P"
bx O"
bx N"
bx M"
bx L"
bx K"
bx J"
bx I"
bx H"
bx G"
bx F"
bx E"
bx D"
bx C"
bx B"
bx A"
bx @"
bx ?"
bx >"
bx ="
bx <"
bx ;"
bx :"
bx 9"
bx 8"
bx 7"
bx 6"
bx 5"
bx 4"
bx 3"
bx 2"
x1"
bx 0"
x/"
bx ."
bx -"
bx ,"
bx +"
bx *"
bx )"
bx ("
bx '"
x&"
bx %"
x$"
x#"
bx0 ""
bx !"
bx ~
x}
bx |
bx {
bx z
bx y
bx x
bx w
bx v
xu
bx t
xs
xr
bx q
bx p
bx o
xn
bx m
xl
bx k
bx j
bx i
bx h
bx g
bx f
bx e
bx d
bx c
bx0 b
bx a
bx `
bx _
x^
x]
bx \
bx [
bx Z
bx Y
bx X
bx W
xV
bx U
xT
bx S
bx R
bx Q
xP
xO
xN
bx M
bx L
bx K
bx J
bx I
bx H
bx G
bx F
bx E
bx D
xC
bx B
bx A
x@
bx ?
x>
bx =
bx0 <
x;
bx :
bx 9
bx 8
bx 7
bx 6
bx 5
bx 4
bx 3
bx 2
bx 1
bx 0
x/
bx .
bx -
bx ,
bx +
bx *
bx )
0(
bx '
b10 &
b0 %
1$
bx #
1"
bx !
$end
#5
b0 <
b0 W"
b0 _
b0 X"
b0 k
b0 U"
b0 J
b0 F"
b0 7"
b0 b"
b11 o
b11 C#
0N
0V
0n
b100 \
b100 \"
b100 ]"
1l
0;
b0 :"
b0 ="
b0 ;"
b0 >"
b0 S
b0 l"
1T
b0 R
b0 n"
0@
b0 X
b0 h"
b0 W
b0 g"
0>
b0 3
b0 9"
b0 =
b0 j"
b0 8"
0O
b0 b
b0 @#
b0 [
b0 ["
b0 ?#
b0 U
b0 >#
0P
0r"
01#
0'#
0)#
0,#
03#
0/#
0-#
0##
0t"
0(#
00#
0.#
0s"
0*#
0+#
04#
0$#
0u"
0v"
0{"
0y"
0w"
0z"
0x"
0|"
0~"
0"#
0}"
0!#
0%#
0&#
02#
b0 j
b0 B#
b0 f"
0c"
b0 e"
0d"
b0 e
b0 P"
b0 f
b0 O"
b0 ,
b0 2
b0 :
b0 M
b0 1
b0 g
b0 N"
b0 h
b0 M"
0C
b0 K
b0 A"
b0 L
b0 @"
b0 D
b0 C"
b0 Q
b0 ?"
b0 B
b0 D"
b0 I
b0 B"
0=#
07#
0;#
0]
06#
0<#
05#
b0 i
b0 E"
b0 A#
0:#
09#
0^
08#
b0 Z
b0 q"
b0 c
b0 p"
b0 d
b0 <"
b0 o"
b0 F
b0 J"
b0 S"
b0 _"
b0 E
b0 K"
b0 T"
b0 `"
b0 H
b0 `
b0 a
b10100000000001010010011 *
b10100000000001010010011 7
b10100000000001010010011 ?
b0 6
b0 5"
b0 0"
b0 2"
01"
b0 6"
b0 L"
b0 a"
b0 4"
b0 3"
0r
b0 0
b0 4
b0 8
b0 q
b0 x
b0 v
0/
0s
0u
b0 t
b0 y
b0 G"
b0 Q"
b0 p
b0 -
b0 m
b0 w
b0 z
b0 !"
b0 |
b0 k"
b0 ""
b0 '"
0}
0#"
0$"
0&"
b0 )"
b0 ,"
b0 I"
b0 +"
b0 H"
b0 *"
b0 R"
b0 ("
b0 ~
b0 {
b0 %"
b0 m"
b0 -"
b0 V"
b0 ."
b100 Y"
b0 .
b0 Y
b0 Z"
b0 ^"
b100000 i"
1(
0$
#25
0(
1$
#50
0"
#100
b100 <
b100 W"
b101 _
b101 X"
b101 k
b101 U"
b101 J
b101 F"
1N
1n
1V
b10000 i
b10000 E"
b10000 A#
1s"
b1000 \
b1000 \"
b1000 ]"
b10100000010000000100011 *
b10100000010000000100011 7
b10100000010000000100011 ?
b1 6
b101 K
b101 A"
b101 L
b101 @"
b101 D
b101 C"
b10000000010 Q
b10000000010 ?"
b10100000000 B
b10100000000 D"
b10000000010 I
b10000000010 B"
1;#
b10011 Z
b10011 q"
b101 E
b101 K"
b101 T"
b101 `"
b101 H
b101 `
b10100000000 a
b1000 Y"
b100 .
b100 Y
b100 Z"
b100 ^"
bx 4"
b11 |
b11 k"
1/"
b10100000000001010010011 ."
b1 %
1"
#150
0"
#200
b0 <
b0 W"
b0 J
b0 F"
0N
0V
0T
b101 R
b101 n"
1O
0l
0s"
12#
b10 j
b10 B#
b101 S
b101 l"
b0 D
b0 C"
b0 Q
b0 ?"
b10100000010 B
b10100000010 D"
b1010000000010 I
b1010000000010 B"
0;#
b1000 i
b1000 E"
b1000 A#
1]
16#
b100011 Z
b100011 q"
b10 d
b10 <"
b10 o"
b0 H
b10100000010 a
b1100 \
b1100 \"
b1100 ]"
b10001100000011 *
b10001100000011 7
b10001100000011 ?
b10 6
1}
1&"
b101 ,"
b101 I"
b101 *"
b101 R"
b101 ("
b10100000000001010010011 )"
b10100000010000000100011 ."
b100 k
b100 U"
b100 _
b100 X"
b100 -"
b100 V"
b1100 Y"
b1000 .
b1000 Y
b1000 Z"
b1000 ^"
b10 %
1"
#250
0"
#300
1N
b101 9"
b1 3
1T
b0 R
b0 n"
0O
02#
b1 U
b1 >#
1P
1V
1"#
b1000110000001110010011 *
b1000110000001110010011 7
b1000110000001110010011 ?
b11 6
b1 g
b1 N"
b101 1
b0 S
b0 l"
b0 K
b0 A"
b0 L
b0 @"
b110 D
b110 C"
b11 Q
b11 ?"
b10 B
b10 D"
b1000000000000 I
b1000000000000 B"
b10000 i
b10000 E"
b10000 A#
0]
06#
1^
18#
b11 Z
b11 q"
b0 E
b0 K"
b0 T"
b0 `"
b110 H
b0 `
b10 a
b10000 \
b10000 \"
b10000 ]"
b10000 Y"
b1100 .
b1100 Y
b1100 Z"
b1100 ^"
1u
b101 y
b101 G"
b101 Q"
b101 -
b101 m
b101 w
b10100000000001010010011 x
b101 z
b10 !"
1$"
0&"
b0 *"
b0 R"
b0 ("
b10100000010000000100011 )"
b100 %"
b100 m"
b10001100000011 ."
b1000 k
b1000 U"
b1000 _
b1000 X"
b1000 -"
b1000 V"
b11 %
1"
#350
0"
#400
b10 <
b10 W"
b10 J
b10 F"
b101 7"
b101 b"
1>
b0 3
0N
b0 U
b0 >#
b10000 i
b10000 E"
b10000 A#
0P
1n
1V
1l
1s"
0"#
b0 j
b0 B#
b101 ,
b101 2
b101 :
b101 M
b0 9"
b0 1
b0 g
b0 N"
1C
b10 K
b10 A"
b10 L
b10 @"
b111 D
b111 C"
b10000000011 Q
b10000000011 ?"
b1000110000 B
b1000110000 D"
b11000000000000001 I
b11000000000000001 B"
1;#
0^
08#
b10011 Z
b10011 q"
b0 d
b0 <"
b0 o"
b110 F
b110 J"
b110 S"
b110 _"
b10 E
b10 K"
b10 T"
b10 `"
b111 H
b10 `
b1000110000 a
b10100 \
b10100 \"
b10100 ]"
b11100000000010000010011 *
b11100000000010000010011 7
b11100000000010000010011 ?
b100 6
11"
b101 6"
b101 L"
b101 a"
b101 3"
b10100000000001010010011 5"
b10 0
b10 4
b10 8
b10 q
1/
1s
0u
b0 y
b0 G"
b0 Q"
b101 p
b0 -
b0 m
b0 w
b10100000010000000100011 x
b100 t
b1 '"
1#"
0$"
1&"
b0 ,"
b0 I"
b110 *"
b110 R"
b10001100000011 )"
b1000 %"
b1000 m"
b1000110000001110010011 ."
b1110 k
b1110 U"
b1110 _
b1110 X"
b1100 -"
b1100 V"
b10100 Y"
b10000 .
b10000 Y
b10000 Z"
b10000 ^"
b100 %
1"
#450
0"
#500
b101 +
b101 5
b101 9
b0 7"
b0 b"
0>
1N
0T
b10 R
b10 n"
b0 ,
b0 2
b0 :
b0 M
b1 h
b1 M"
0C
b10 S
b10 l"
01"
b0 6"
b0 L"
b0 a"
b0 3"
b10100000010000000100011 5"
b100 0"
b1 v
1r
0/
0s
1u
b110 y
b110 G"
b110 Q"
b0 p
b10001100000011 x
b1000 t
b0 z
b0 !"
b0 '"
0#"
0&"
b10 ,"
b10 I"
b110 +"
b110 H"
b111 *"
b111 R"
b10 ("
b1000110000001110010011 )"
b1100 %"
b1100 m"
b101 %
1"
#550
0"
#600
b110 <
b110 W"
b111 J
b111 F"
b101 7"
b101 b"
b0 +
b0 5
b0 9
b111 R
b111 n"
b10 h
b10 M"
b101 =
b101 j"
b101 8"
b10 1
b111 K
b111 A"
b111 L
b111 @"
b1000 D
b1000 C"
b100 Q
b100 ?"
b11100000000 B
b11100000000 D"
b10000000011 I
b10000000011 B"
b0 F
b0 J"
b0 S"
b0 _"
b111 E
b111 K"
b111 T"
b111 `"
b1000 H
b111 `
b11100000000 a
b11000 \
b11000 \"
b11000 ]"
b100000111000111001100011 *
b100000111000111001100011 7
b100000111000111001100011 ?
b101 6
b1 2"
11"
b110 6"
b110 L"
b110 a"
b101 4"
b10001100000011 5"
b1000 0"
b0 0
b0 4
b0 8
b0 q
b0 v
0r
0u
b111 y
b111 G"
b111 Q"
b10 -
b10 m
b10 w
b1000110000001110010011 x
b1100 t
b10 z
1&"
b11100000000010000010011 ."
b10111 k
b10111 U"
b10111 _
b10111 X"
b10000 -"
b10000 V"
b11000 Y"
b10100 .
b10100 Y
b10100 Z"
b10100 ^"
b110 %
1"
#650
0"
#700
bx +
bx 5
bx 9
b11100 J
b11100 F"
b10 7"
b10 b"
b10010 o
b10010 C#
0n
0V
b100010 <
b100010 W"
0l
b111 :"
b111 ="
0N
b1 [
b1 ["
b1 ?#
b1 f
b1 O"
1C
b1 3
1@
0s"
1v"
b101000000000010100010011 *
b101000000000010100010011 7
b101000000000010100010011 ?
b110 6
b111 9"
b0 =
b0 j"
b0 8"
b111 1
b1 g
b1 N"
b0 h
b0 M"
b111 S
b111 l"
b1000 K
b1000 A"
b1000 L
b1000 @"
b11100 D
b11100 C"
b1110 Q
b1110 ?"
b100000111000 B
b100000111000 D"
b11100000000000100 I
b11100000000000100 B"
0;#
b100 i
b100 E"
b100 A#
1<#
b1100011 Z
b1100011 q"
b111 F
b111 J"
b111 S"
b111 _"
b1000 E
b1000 K"
b1000 T"
b1000 `"
b11100 H
b1000 `
b100000111000 a
b11100 \
b11100 \"
b11100 ]"
b11100 Y"
b11000 .
b11000 Y
b11000 Z"
b11000 ^"
b0 2"
01"
b111 6"
b111 L"
b111 a"
b0 4"
b10 3"
b1000110000001110010011 5"
b1100 0"
1u
b111 -
b111 m
b111 w
b111 ,"
b111 I"
b0 +"
b0 H"
b1000 *"
b1000 R"
b111 ("
b11100000000010000010011 )"
b10000 %"
b10000 m"
b100000111000111001100011 ."
b110000 k
b110000 U"
b110000 _
b110000 X"
b10100 -"
b10100 V"
b111 %
1"
#750
0"
#800
1;
b110000 \
b110000 \"
b110000 ]"
1l
b111 7"
b111 b"
b111 X
b111 h"
b100010 <
b100010 W"
1c"
b111 ;"
b111 >"
b111 :"
b111 ="
b111 =
b111 j"
b111 8"
b1 e
b1 P"
b10 f
b10 O"
b111 ,
b111 2
b111 :
b111 M
b1 g
b1 N"
b10 h
b10 M"
0C
11"
bx 4"
b111 3"
b1000 y
b1000 G"
b1000 Q"
b111 p
b11100000000010000010011 x
b10000 t
b111 z
b10010 |
b10010 k"
0}
0&"
b1000 ,"
b1000 I"
b111 +"
b111 H"
b11100 *"
b11100 R"
b11100 ("
b100000111000111001100011 )"
b10100 %"
b10100 m"
b1000 %
1"
#850
0"
#900
b0 J
b0 F"
b11 o
b11 C#
b0 <
b0 W"
0;
b0 [
b0 ["
b0 ?#
b0 :"
b0 ="
1l
b0 X
b0 h"
b0 ;"
b0 >"
0@
0v"
b1110000000000010110010011 *
b1110000000000010110010011 7
b1110000000000010110010011 ?
b1100 6
0c"
b0 e
b0 P"
b0 f
b0 O"
b10 g
b10 N"
b0 h
b0 M"
b0 K
b0 A"
b0 L
b0 @"
b0 D
b0 C"
b0 Q
b0 ?"
b0 B
b0 D"
b0 I
b0 B"
b0 i
b0 E"
b0 A#
0<#
b0 Z
b0 q"
b0 F
b0 J"
b0 S"
b0 _"
b0 E
b0 K"
b0 T"
b0 `"
b0 H
b0 `
b0 a
b110100 \
b110100 \"
b110100 ]"
b110100 Y"
b110000 .
b110000 Y
b110000 Z"
b110000 ^"
b1000 6"
b1000 L"
b1000 a"
b11100000000010000010011 5"
b10000 0"
0u
b11100 y
b11100 G"
b11100 Q"
b100000111000111001100011 x
b10100 t
b1000 z
b111 {
b0 ."
b0 k
b0 U"
b0 _
b0 X"
b0 -"
b0 V"
b1001 %
1"
#950
0"
#1000
b11100 <
b11100 W"
b11100 J
b11100 F"
1N
1n
1V
1T
b0 S
b0 l"
b10000 i
b10000 E"
b10000 A#
b0 9"
1s"
b0 g
b0 N"
b0 =
b0 j"
b0 8"
b0 R
b0 n"
b11100 K
b11100 A"
b11100 L
b11100 @"
b1011 D
b1011 C"
b10000000101 Q
b10000000101 ?"
b1110000000000 B
b1110000000000 D"
b1110 I
b1110 B"
1;#
b10011 Z
b10011 q"
b11100 E
b11100 K"
b11100 T"
b11100 `"
b1011 H
b11100 `
b1110000000000 a
b111000 \
b111000 \"
b111000 ]"
b1011000000001100111 *
b1011000000001100111 7
b1011000000001100111 ?
b1101 6
01"
b11100 6"
b11100 L"
b11100 a"
b100000111000111001100011 5"
b10100 0"
b11 |
b11 k"
b0 ,"
b0 I"
b0 +"
b0 H"
b0 *"
b0 R"
b0 ("
b0 {
b0 )"
b0 %"
b0 m"
b1110000000000010110010011 ."
b1001100 k
b1001100 U"
b1001100 _
b1001100 X"
b110000 -"
b110000 V"
b111000 Y"
b110100 .
b110100 Y
b110100 Z"
b110100 ^"
b1010 %
1"
#1025
b111 !
b111 )
b111 G
b111 #
b111 '
b111 A
#1050
0"
#1100
b0 <
b0 W"
b101 +
b101 5
b101 9
b0 J
b0 F"
0N
1C
b10 U
b10 >#
1@
b0 i
b0 E"
b0 A#
b0 3
0T
b11100 R
b11100 n"
0s"
b100 [
b100 ["
b100 ?#
b10100000000000011000010011 *
b10100000000000011000010011 7
b10100000000000011000010011 ?
b1110 6
b0 ,
b0 2
b0 :
b0 M
b0 1
b11100 S
b11100 l"
b0 K
b0 A"
b0 L
b0 @"
b0 D
b0 C"
b0 Q
b0 ?"
b1011000 B
b1011000 D"
b101100000000000000 I
b101100000000000000 B"
0;#
19#
b1100111 Z
b1100111 q"
b1011 F
b1011 J"
b1011 S"
b1011 _"
b0 E
b0 K"
b0 T"
b0 `"
b0 H
b0 `
b1011000 a
b0 \
b0 \"
b0 ]"
b111100 Y"
b111000 .
b111000 Y
b111000 Z"
b111000 ^"
b0 y
b0 G"
b0 Q"
b0 p
b0 -
b0 m
b0 w
b0 x
b0 t
b0 z
1}
1&"
b11100 ,"
b11100 I"
b1011 *"
b1011 R"
b11100 ("
b1110000000000010110010011 )"
b110000 %"
b110000 m"
b1011000000001100111 ."
b110100 k
b110100 U"
b110100 _
b110100 X"
b110100 -"
b110100 V"
b1011 %
1"
#1150
0"
#1200
bx +
bx 5
bx 9
b0 7"
b0 b"
b11100 \
b11100 \"
b11100 ]"
b11100 <
b11100 W"
0l
b11100 :"
b11100 ="
b111 3
1N
1;
b1 f
b1 O"
b11100 =
b11100 j"
b11100 8"
b11100 1
b1 h
b1 M"
0C
b0 S
b0 l"
b0 6"
b0 L"
b0 a"
b101 4"
b0 3"
b0 5"
b0 0"
1u
b1011 y
b1011 G"
b1011 Q"
b11100 -
b11100 m
b11100 w
b1110000000000010110010011 x
b110000 t
b11100 z
b10 '"
0&"
b0 ,"
b0 I"
b1011 +"
b1011 H"
b0 *"
b0 R"
b0 ("
b1011000000001100111 )"
b110100 %"
b110100 m"
b1100 %
1"
#1250
0"
#1300
b11100 7"
b11100 b"
0;
b0 U
b0 >#
0N
b0 <
b0 W"
1l
0T
b11100 R
b11100 n"
0@
b100000 \
b100000 \"
b100000 ]"
0n
0V
b0 :"
b0 ="
b11100 =
b11100 j"
b11100 8"
b0 [
b0 ["
b0 ?#
b10001110000011 *
b10001110000011 7
b10001110000011 ?
b111 6
b0 f
b0 O"
b10 h
b10 M"
b0 B
b0 D"
b0 I
b0 B"
09#
b0 Z
b0 q"
b0 F
b0 J"
b0 S"
b0 _"
b0 a
b100000 Y"
b11100 .
b11100 Y
b11100 Z"
b11100 ^"
11"
b1011 6"
b1011 L"
b1011 a"
bx 4"
b11100 3"
b1110000000000010110010011 5"
b110000 0"
b10 v
0u
b0 y
b0 G"
b0 Q"
b1011000000001100111 x
b110100 t
b0 z
1&"
b0 ."
b0 k
b0 U"
b0 _
b0 X"
b0 -"
b0 V"
b1101 %
1"
#1350
0"
#1400
b111000 7"
b111000 b"
b0 <
b0 W"
b0 :"
b0 ="
b0 ;"
b0 >"
1T
b0 R
b0 n"
1N
b0 X
b0 h"
b0 W
b0 g"
b0 =
b0 j"
b0 8"
b1 U
b1 >#
b10000 i
b10000 E"
b10000 A#
1P
1n
1V
0l
1"#
b10 j
b10 B#
0c"
0d"
b0 h
b0 M"
b111 D
b111 C"
b10000000011 Q
b10000000011 ?"
b10 B
b10 D"
b1000000000000 I
b1000000000000 B"
1^
18#
b11 Z
b11 q"
b10 d
b10 <"
b10 o"
b111 H
b10 a
b100100 \
b100100 \"
b100100 ]"
b11100101000110001100011 *
b11100101000110001100011 7
b11100101000110001100011 ?
b1000 6
b10 2"
01"
b0 6"
b0 L"
b0 a"
b1011000000001100111 5"
b110100 0"
1u
b0 '"
0}
0&"
b0 +"
b0 H"
b0 )"
b0 %"
b0 m"
b10001110000011 ."
b11100 k
b11100 U"
b11100 _
b11100 X"
b11100 -"
b11100 V"
b100100 Y"
b100000 .
b100000 Y
b100000 Z"
b100000 ^"
b1110 %
1"
#1450
0"
