sim6.vcd
$date
	Tue Jul 01 17:11:20 2025
$end
$version
	Icarus Verilog
$end
$timescale
	1s
$end
$scope module sccomp_tb $end
$var wire 32 ! reg_data [31:0] $end
$var reg 1 " clk $end
$var reg 5 # reg_sel [4:0] $end
$var reg 1 $ rstn $end
$var integer 32 % counter [31:0] $end
$var integer 32 & foutput [31:0] $end
$scope module U_SCCOMP $end
$var wire 1 " clk $end
$var wire 5 ' reg_sel [4:0] $end
$var wire 1 ( rst $end
$var wire 1 $ rstn $end
$var wire 32 ) reg_data [31:0] $end
$var wire 32 * instr [31:0] $end
$var wire 32 + dm_dout [31:0] $end
$var wire 32 , dm_din [31:0] $end
$var wire 32 - dm_addr [31:0] $end
$var wire 32 . PC [31:0] $end
$var wire 1 / MemWrite $end
$var wire 3 0 DMType [2:0] $end
$scope module U_DM $end
$var wire 9 1 addr [8:0] $end
$var wire 1 " clk $end
$var wire 32 2 din [31:0] $end
$var wire 7 3 Num [8:2] $end
$var wire 1 / DMWr $end
$var wire 3 4 DMType [2:0] $end
$var reg 32 5 dout [31:0] $end
$upscope $end
$scope module U_IM $end
$var wire 8 6 addr [9:2] $end
$var wire 32 7 dout [31:0] $end
$upscope $end
$scope module U_SCPU $end
$var wire 3 8 DMType [2:0] $end
$var wire 32 9 Data_in [31:0] $end
$var wire 32 : Data_out [31:0] $end
$var wire 1 ; Flush $end
$var wire 32 < JALR_Addr [31:0] $end
$var wire 1 / MemWrite $end
$var wire 32 = alu_A [31:0] $end
$var wire 1 " clk $end
$var wire 32 > inst_in [31:0] $end
$var wire 5 ? reg_sel [4:0] $end
$var wire 1 ( reset $end
$var wire 20 @ uimm [19:0] $end
$var wire 12 A simm [11:0] $end
$var wire 5 B rs2 [4:0] $end
$var wire 5 C rs1 [4:0] $end
$var wire 32 D reg_data [31:0] $end
$var wire 5 E rd [4:0] $end
$var wire 20 F jimm [19:0] $end
$var wire 32 G immout [31:0] $end
$var wire 5 H iimm_shamt [4:0] $end
$var wire 12 I iimm [11:0] $end
$var wire 12 J bimm [11:0] $end
$var wire 32 K aluout [31:0] $end
$var wire 32 L alu_B [31:0] $end
$var wire 1 M Zero $end
$var wire 2 N WDSel [1:0] $end
$var wire 1 O RegWrite $end
$var wire 32 P RD2 [31:0] $end
$var wire 32 Q RD1 [31:0] $end
$var wire 32 R PC_out [31:0] $end
$var wire 7 S Op [6:0] $end
$var wire 3 T NPCOp [2:0] $end
$var wire 32 U NPC [31:0] $end
$var wire 1 V MemWrite_ctrl $end
$var wire 32 W JAL_Addr [31:0] $end
$var wire 12 X Imm12 [11:0] $end
$var wire 20 Y IMM [19:0] $end
$var wire 2 Z GPRSel [1:0] $end
$var wire 7 [ Funct7 [6:0] $end
$var wire 3 \ Funct3 [2:0] $end
$var wire 6 ] EXTOp [5:0] $end
$var wire 3 ^ DMType_ctrl [2:0] $end
$var wire 32 _ Branch_Addr [31:0] $end
$var wire 1 ` BranchTaken $end
$var wire 32 a Addr_out [31:0] $end
$var wire 1 b ALUSrc $end
$var wire 5 c ALUOp [4:0] $end
$var reg 32 d EX_MEM_B [31:0] $end
$var reg 3 e EX_MEM_DMType [2:0] $end
$var reg 1 f EX_MEM_MemWrite $end
$var reg 32 g EX_MEM_PC [31:0] $end
$var reg 1 h EX_MEM_RegWrite $end
$var reg 2 i EX_MEM_WDSel [1:0] $end
$var reg 32 j EX_MEM_alu_out [31:0] $end
$var reg 32 k EX_MEM_inst [31:0] $end
$var reg 5 l EX_MEM_rd [4:0] $end
$var reg 32 m ID_EX_A [31:0] $end
$var reg 5 n ID_EX_ALUOp [4:0] $end
$var reg 1 o ID_EX_ALUSrc $end
$var reg 32 p ID_EX_B [31:0] $end
$var reg 3 q ID_EX_DMType [2:0] $end
$var reg 2 r ID_EX_GPRSel [1:0] $end
$var reg 1 s ID_EX_MemWrite $end
$var reg 32 t ID_EX_PC [31:0] $end
$var reg 1 u ID_EX_RegWrite $end
$var reg 2 v ID_EX_WDSel [1:0] $end
$var reg 32 w ID_EX_imm [31:0] $end
$var reg 32 x ID_EX_inst [31:0] $end
$var reg 5 y ID_EX_rd [4:0] $end
$var reg 5 z ID_EX_rs1 [4:0] $end
$var reg 5 { ID_EX_rs2 [4:0] $end
$var reg 32 | IF_ID_PC [31:0] $end
$var reg 32 } IF_ID_inst [31:0] $end
$var reg 1 ~ IF_ID_valid $end
$var reg 32 !" MEM_WB_PC [31:0] $end
$var reg 1 "" MEM_WB_RegWrite $end
$var reg 2 #" MEM_WB_WDSel [1:0] $end
$var reg 32 $" MEM_WB_alu_out [31:0] $end
$var reg 32 %" MEM_WB_dmem_out [31:0] $end
$var reg 32 &" MEM_WB_inst [31:0] $end
$var reg 5 '" MEM_WB_rd [4:0] $end
$var reg 32 (" WD [31:0] $end
$scope module U_BranchUnit $end
$var wire 3 )" Funct3 [2:0] $end
$var wire 32 *" rs2_val [31:0] $end
$var wire 32 +" rs1_val [31:0] $end
$var reg 1 ` BranchTaken $end
$upscope $end
$scope module U_EXT $end
$var wire 12 ," bimm [11:0] $end
$var wire 12 -" iimm [11:0] $end
$var wire 5 ." iimm_shamt [4:0] $end
$var wire 20 /" jimm [19:0] $end
$var wire 12 0" simm [11:0] $end
$var wire 20 1" uimm [19:0] $end
$var wire 6 2" EXTOp [5:0] $end
$var reg 32 3" immout [31:0] $end
$upscope $end
$scope module U_NPC $end
$var wire 1 ` BranchTaken $end
$var wire 32 4" Branch_Addr [31:0] $end
$var wire 32 5" IF_ID_PC [31:0] $end
$var wire 32 6" JALR_Addr [31:0] $end
$var wire 32 7" JAL_Addr [31:0] $end
$var wire 32 8" PCPLUS4 [31:0] $end
$var wire 32 9" PC [31:0] $end
$var wire 3 :" NPCOp [2:0] $end
$var reg 32 ;" NPC [31:0] $end
$upscope $end
$scope module U_PC $end
$var wire 32 <" NPC [31:0] $end
$var wire 1 " clk $end
$var wire 1 ( rst $end
$var reg 32 =" PC [31:0] $end
$upscope $end
$scope module U_RF $end
$var wire 5 >" A1 [4:0] $end
$var wire 5 ?" A2 [4:0] $end
$var wire 5 @" A3 [4:0] $end
$var wire 1 "" RFWr $end
$var wire 32 A" WD [31:0] $end
$var wire 1 " clk $end
$var wire 1 ( rst $end
$var wire 32 B" RD2 [31:0] $end
$var wire 32 C" RD1 [31:0] $end
$var integer 32 D" i [31:0] $end
$upscope $end
$scope module U_alu $end
$var wire 32 E" A [31:0] $end
$var wire 5 F" ALUOp [4:0] $end
$var wire 32 G" B [31:0] $end
$var wire 32 H" PC [31:0] $end
$var wire 1 M Zero $end
$var reg 32 I" C [31:0] $end
$upscope $end
$scope module U_ctrl $end
$var wire 1 b ALUSrc $end
$var wire 3 J" Funct3 [2:0] $end
$var wire 7 K" Funct7 [6:0] $end
$var wire 1 V MemWrite $end
$var wire 7 L" Op [6:0] $end
$var wire 1 O RegWrite $end
$var wire 1 M" i_add $end
$var wire 1 N" i_addi $end
$var wire 1 O" i_and $end
$var wire 1 P" i_andi $end
$var wire 1 Q" i_beq $end
$var wire 1 R" i_bge $end
$var wire 1 S" i_bgeu $end
$var wire 1 T" i_blt $end
$var wire 1 U" i_bltu $end
$var wire 1 V" i_bne $end
$var wire 1 W" i_lb $end
$var wire 1 X" i_lbu $end
$var wire 1 Y" i_lh $end
$var wire 1 Z" i_lhu $end
$var wire 1 [" i_lw $end
$var wire 1 \" i_or $end
$var wire 1 ]" i_ori $end
$var wire 1 ^" i_sb $end
$var wire 1 _" i_sh $end
$var wire 1 `" i_sll $end
$var wire 1 a" i_slli $end
$var wire 1 b" i_slt $end
$var wire 1 c" i_slti $end
$var wire 1 d" i_sltiu $end
$var wire 1 e" i_sltu $end
$var wire 1 f" i_sra $end
$var wire 1 g" i_srai $end
$var wire 1 h" i_srl $end
$var wire 1 i" i_srli $end
$var wire 1 j" i_sub $end
$var wire 1 k" i_sw $end
$var wire 1 l" i_xor $end
$var wire 1 m" i_xori $end
$var wire 1 n" utype $end
$var wire 1 o" stype $end
$var wire 1 p" rtype $end
$var wire 1 q" load $end
$var wire 1 r" jalr $end
$var wire 1 s" jal $end
$var wire 1 t" itype $end
$var wire 1 u" btype $end
$var wire 1 v" auipc $end
$var wire 2 w" WDSel [1:0] $end
$var wire 3 x" NPCOp [2:0] $end
$var wire 2 y" GPRSel [1:0] $end
$var wire 6 z" EXTOp [5:0] $end
$var wire 3 {" DMType [2:0] $end
$var wire 5 |" ALUOp [4:0] $end
$upscope $end
$upscope $end
$upscope $end
$upscope $end
$enddefinitions $end
$comment Show the parameter values. $end
$dumpall
$end
#0
$dumpvars
bx |"
bx {"
bx z"
bx0 y"
bx x"
bx w"
xv"
xu"
xt"
xs"
xr"
xq"
xp"
xo"
xn"
xm"
xl"
xk"
xj"
xi"
xh"
xg"
xf"
xe"
xd"
xc"
xb"
xa"
x`"
x_"
x^"
x]"
x\"
x["
xZ"
xY"
xX"
xW"
xV"
xU"
xT"
xS"
xR"
xQ"
xP"
xO"
xN"
xM"
bx L"
bx K"
bx J"
bx I"
bx H"
bx G"
bx F"
bx E"
bx D"
bx C"
bx B"
bx A"
bx @"
bx ?"
bx >"
bx ="
bx <"
bx ;"
bx :"
bx 9"
bx 8"
bx 7"
bx0 6"
bx 5"
bx 4"
bx 3"
bx 2"
bx 1"
bx 0"
bx /"
bx ."
bx -"
bx ,"
bx +"
bx *"
bx )"
bx ("
bx '"
bx &"
bx %"
bx $"
bx #"
x""
bx !"
1~
bx }
bx |
bx {
bx z
bx y
bx x
bx w
bx v
xu
bx t
xs
bx0 r
bx q
bx p
xo
bx n
bx m
bx l
bx k
bx j
bx i
xh
bx g
xf
bx e
bx d
bx c
xb
bx a
x`
bx _
bx ^
bx ]
bx \
bx [
bx0 Z
bx Y
bx X
bx W
xV
bx U
bx T
bx S
bx R
bx Q
bx P
xO
bx N
xM
bx L
bx K
bx J
bx I
bx H
bx G
bx F
bx E
bx D
bx C
bx B
bx A
bx @
bx ?
bx >
bx =
bx0 <
x;
bx :
bx 9
bx 8
bx 7
bx 6
bx 5
bx 4
bx 3
bx 2
bx 1
bx 0
x/
bx .
bx -
bx ,
bx +
bx *
bx )
0(
bx '
b10 &
b0 %
1$
bx #
1"
bx !
$end
#5
b0 <
b0 6"
b0 W
b0 7"
b0 _
b0 4"
b0 G
b0 3"
b0 ("
b0 A"
b11 c
b11 |"
0O
0b
0;
b0 3
b0 Z
b0 y"
b0 T
b0 :"
b0 x"
b0 N
b0 w"
0M"
0j"
0`"
0b"
0e"
0l"
0h"
0f"
0\"
0O"
0a"
0i"
0g"
1`
0N"
0c"
0d"
0m"
0]"
0P"
0Q"
0V"
0T"
0R"
0U"
0S"
0W"
0Y"
0["
0X"
0Z"
0^"
0_"
0k"
b0 ^
b0 {"
b0 Q
b0 +"
b0 C"
b0 P
b0 *"
b0 B"
b0 1
b0 L
b0 G"
1M
b0 K
b0 I"
b0 H
b0 ."
b0 I
b0 -"
b0 A
b0 0"
b0 J
b0 ,"
b0 @
b0 1"
b0 F
b0 /"
0v"
0p"
0t"
0V
0o"
0u"
0n"
b0 ]
b0 2"
b0 z"
0s"
0r"
0q"
b0 S
b0 L"
b0 [
b0 K"
b0 \
b0 )"
b0 J"
b0 C
b0 >"
b0 B
b0 ?"
b0 E
b0 X
b0 Y
b100 U
b100 ;"
b100 <"
b1010010011 *
b1010010011 7
b1010010011 >
b0 6
b0 &"
b0 !"
b0 #"
0""
b0 '"
b0 @"
b0 %"
b0 $"
b0 0
b0 4
b0 8
b0 e
b0 k
b0 i
0/
0f
0h
b0 g
b0 l
b0 ,
b0 2
b0 :
b0 d
b0 -
b0 a
b0 j
b0 q
b0 n
b0 F"
b0 r
b0 v
0o
0s
0u
b0 x
b0 {
b0 z
b0 y
b0 w
b0 p
b0 =
b0 E"
b0 m
b0 t
b0 H"
b0 |
b0 5"
b0 }
b100 8"
b0 .
b0 R
b0 9"
b0 ="
b100000 D"
1(
0$
#25
0(
1$
#50
0"
#100
1b
1O
b10000 ]
b10000 2"
b10000 z"
1N"
b1000 U
b1000 ;"
b1000 <"
b1100010011 *
b1100010011 7
b1100010011 >
b1 6
b101 A
b101 0"
b10000000010 J
b10000000010 ,"
1t"
b10011 S
b10011 L"
b101 E
b1000 8"
b100 .
b100 R
b100 9"
b100 ="
bx %"
b11 n
b11 F"
b1010010011 }
b1 %
1"
#150
0"
#200
b110 A
b110 0"
b11 J
b11 ,"
b110 E
b1100 U
b1100 ;"
b1100 <"
b11111111111111111111001110110111 *
b11111111111111111111001110110111 7
b11111111111111111111001110110111 >
b10 6
1o
1u
b101 y
b1010010011 x
b1100010011 }
b100 _
b100 4"
b100 W
b100 7"
b100 |
b100 5"
b1100 8"
b1000 .
b1000 R
b1000 9"
b1000 ="
b10 %
1"
#250
0"
#300
b11111111111111111111000000000000 <
b11111111111111111111000000000000 6"
b11111111111111111111000000000000 G
b11111111111111111111000000000000 3"
b1 c
b1 |"
b10 ]
b10 2"
b10 z"
0N"
b10 ^
b10 {"
b10011 *
b10011 7
b10011 >
b11 6
b11111 H
b11111 ."
b111111111111 I
b111111111111 -"
b111111100111 A
b111111100111 0"
b111111110011 J
b111111110011 ,"
b11111111111111111111 @
b11111111111111111111 1"
b11111111111111111111 F
b11111111111111111111 /"
0t"
1n"
b110111 S
b110111 L"
b1111111 [
b1111111 K"
b111 \
b111 )"
b111 J"
b11111 C
b11111 >"
b11111 B
b11111 ?"
b111 E
b111111111111 X
b11111111111111111111 Y
b10000 U
b10000 ;"
b10000 <"
b10000 8"
b1100 .
b1100 R
b1100 9"
b1100 ="
1h
b101 l
b1010010011 k
b110 y
b1100010011 x
b100 t
b100 H"
b11111111111111111111001110110111 }
b11111111111111111111000000001000 _
b11111111111111111111000000001000 4"
b11111111111111111111000000001000 W
b11111111111111111111000000001000 7"
b1000 |
b1000 5"
b11 %
1"
#350
0"
#400
b0 <
b0 6"
b0 G
b0 3"
1b
1O
0M
b11111111111111111111000000000000 K
b11111111111111111111000000000000 I"
b11 c
b11 |"
b10000 ]
b10000 2"
b10000 z"
1N"
b0 ^
b0 {"
b11111111111111111111000000000000 L
b11111111111111111111000000000000 G"
b0 H
b0 ."
b0 I
b0 -"
b0 A
b0 0"
b0 J
b0 ,"
b0 @
b0 1"
b0 F
b0 /"
1t"
0n"
b10011 S
b10011 L"
b0 [
b0 K"
b0 \
b0 )"
b0 J"
b0 C
b0 >"
b0 B
b0 ?"
b0 E
b0 X
b0 Y
b10100 U
b10100 ;"
b10100 <"
b100 6
1""
b101 '"
b101 @"
b1010010011 &"
b110 l
b1100010011 k
b100 g
b10 q
b1 n
b1 F"
b11111 {
b11111 z
b111 y
b11111111111111111111000000000000 w
b11111111111111111111001110110111 x
b1000 t
b1000 H"
b10011 }
b1100 _
b1100 4"
b1100 W
b1100 7"
b1100 |
b1100 5"
b10100 8"
b10000 .
b10000 R
b10000 9"
b10000 ="
b100 %
1"
#450
0"
#500
1M
b0 K
b0 I"
b101 6
b0 L
b0 G"
b11000 U
b11000 ;"
b11000 <"
b11000 8"
b10100 .
b10100 R
b10100 9"
b10100 ="
b110 '"
b110 @"
b1100010011 &"
b100 !"
b10 0
b10 4
b10 8
b10 e
b111 l
b11111111111111111111000000000000 -
b11111111111111111111000000000000 a
b11111111111111111111000000000000 j
b11111111111111111111001110110111 k
b1000 g
b0 q
b11 n
b11 F"
b0 {
b0 z
b0 y
b0 w
b10011 x
b1100 t
b1100 H"
b10000 _
b10000 4"
b10000 W
b10000 7"
b10000 |
b10000 5"
b101 %
1"
#550
0"
#600
b11111111111111111111000000000000 ("
b11111111111111111111000000000000 A"
b11100 U
b11100 ;"
b11100 <"
b10110000000110000101001100011 *
b10110000000110000101001100011 7
b10110000000110000101001100011 >
b110 6
b111 '"
b111 @"
b11111111111111111111000000000000 $"
b11111111111111111111001110110111 &"
b1000 !"
b0 0
b0 4
b0 8
b0 e
b0 l
b0 -
b0 a
b0 j
b10011 k
b1100 g
b10000 t
b10000 H"
b10100 _
b10100 4"
b10100 W
b10100 7"
b10100 |
b10100 5"
b11100 8"
b11000 .
b11000 R
b11000 9"
b11000 ="
b110 %
1"
#650
0"
#700
b101110100 <
b101110100 6"
b101110100 G
b101110100 3"
b0 ("
b0 A"
b10010 c
b10010 |"
0b
0O
1;
b1 T
b1 :"
b1 x"
0N"
1Q"
b10011 *
b10011 7
b10011 >
b111 6
b101100000 I
b101100000 -"
b101110100 A
b101110100 0"
b10111010 J
b10111010 ,"
b10110000000110000 @
b10110000000110000 1"
b11000000010110000 F
b11000000010110000 /"
0t"
b100 ]
b100 2"
b100 z"
1u"
b1100011 S
b1100011 L"
b1011 [
b1011 K"
b110 C
b110 >"
b10100 E
b101100000 X
b10110000000110000 Y
b110001100 U
b110001100 ;"
b110001100 <"
b100000 8"
b11100 .
b11100 R
b11100 9"
b11100 ="
b0 '"
b0 @"
b0 $"
b10011 &"
b1100 !"
b10000 g
b10100 t
b10100 H"
b10110000000110000101001100011 }
b110001100 _
b110001100 4"
b110001100 W
b110001100 7"
b11000 |
b11000 5"
b111 %
1"
#750
0"
#800
b0 <
b0 6"
b0 G
b0 3"
b11 c
b11 |"
0;
b0 T
b0 :"
b0 x"
0Q"
b0 I
b0 -"
b0 A
b0 0"
b0 J
b0 ,"
b0 @
b0 1"
b0 F
b0 /"
b0 ]
b0 2"
b0 z"
0u"
b0 S
b0 L"
b0 [
b0 K"
b0 C
b0 >"
b0 E
b0 X
b0 Y
b110010000 U
b110010000 ;"
b110010000 <"
b100101000001010010011 *
b100101000001010010011 7
b100101000001010010011 >
b1100011 6
b10000 !"
b10100 g
b10010 n
b10010 F"
0o
0u
b110 z
b10100 y
b101110100 w
b10110000000110000101001100011 x
b11000 t
b11000 H"
b0 }
b0 _
b0 4"
b0 W
b0 7"
b0 |
b0 5"
b110010000 8"
b110001100 .
b110001100 R
b110001100 9"
b110001100 ="
b1000 %
1"
#850
0"
#900
b1 G
b1 3"
1b
1O
b10000 ]
b10000 2"
b10000 z"
1N"
b10011 *
b10011 7
b10011 >
b1100100 6
b1 H
b1 ."
b1 I
b1 -"
b101 A
b101 0"
b10000000010 J
b10000000010 ,"
b100101000 @
b100101000 1"
b10100010000000000 F
b10100010000000000 /"
1t"
b10011 S
b10011 L"
b101 C
b101 >"
b1 B
b1 ?"
b101 E
b1 X
b100101000 Y
b110010100 U
b110010100 ;"
b110010100 <"
b110010100 8"
b110010000 .
b110010000 R
b110010000 9"
b110010000 ="
b10100 !"
0h
b10100 l
b10110000000110000101001100011 k
b11000 g
b11 n
b11 F"
b0 z
b0 y
b0 w
b0 x
b0 t
b0 H"
b100101000001010010011 }
b110001101 _
b110001101 4"
b110001101 W
b110001101 7"
b110001100 |
b110001100 5"
b1001 %
1"
#950
0"
#1000
b0 G
b0 3"
0M
b1 K
b1 I"
b1 L
b1 G"
b0 H
b0 ."
b0 I
b0 -"
b0 A
b0 0"
b0 J
b0 ,"
b0 @
b0 1"
b0 F
b0 /"
b0 C
b0 >"
b0 B
b0 ?"
b0 E
b0 X
b0 Y
b110011000 U
b110011000 ;"
b110011000 <"
b1100101 6
0""
b10100 '"
b10100 @"
b10110000000110000101001100011 &"
b11000 !"
b0 l
b0 k
b0 g
1o
1u
b1 {
b101 z
b101 y
b1 w
b100101000001010010011 x
b110001100 t
b110001100 H"
b10011 }
b110010000 _
b110010000 4"
b110010000 W
b110010000 7"
b110010000 |
b110010000 5"
b110011000 8"
b110010100 .
b110010100 R
b110010100 9"
b110010100 ="
b1010 %
1"
#1025
b11111111111111111111000000000000 !
b11111111111111111111000000000000 )
b11111111111111111111000000000000 D
b111 #
b111 '
b111 ?
#1050
0"
#1100
1M
b0 K
b0 I"
b1100110 6
b1 1
b0 L
b0 G"
b110011100 U
b110011100 ;"
b110011100 <"
b110011100 8"
b110011000 .
b110011000 R
b110011000 9"
b110011000 ="
b0 '"
b0 @"
b0 &"
b0 !"
1h
b101 l
b1 -
b1 a
b1 j
b100101000001010010011 k
b110001100 g
b0 {
b0 z
b0 y
b0 w
b10011 x
b110010000 t
b110010000 H"
b110010100 _
b110010100 4"
b110010100 W
b110010100 7"
b110010100 |
b110010100 5"
b1011 %
1"
#1150
0"
#1200
b1 ("
b1 A"
b0 1
b110100000 U
b110100000 ;"
b110100000 <"
b11101001000111111111000001101111 *
b11101001000111111111000001101111 7
b11101001000111111111000001101111 >
b1100111 6
1""
b101 '"
b101 @"
b1 $"
b100101000001010010011 &"
b110001100 !"
b0 l
b0 -
b0 a
b0 j
b10011 k
b110010000 g
b110010100 t
b110010100 H"
b110011000 _
b110011000 4"
b110011000 W
b110011000 7"
b110011000 |
b110011000 5"
b110100000 8"
b110011100 .
b110011100 R
b110011100 9"
b110011100 ="
b1100 %
1"
#1250
0"
#1300
b11111111111111111111111010010000 <
b11111111111111111111111010010000 6"
b11111111111111111111111010010000 G
b11111111111111111111111010010000 3"
b0 ("
b0 A"
1;
b10 N
b10 w"
b10 T
b10 :"
b10 x"
b10 Z
b10 y"
0N"
b10 ^
b10 {"
b10011 *
b10011 7
b10011 >
b1101000 6
b10001 H
b10001 ."
b111010010001 I
b111010010001 -"
b111010000000 A
b111010000000 0"
b101101000000 J
b101101000000 ,"
b11101001000111111111 @
b11101001000111111111 1"
b11111111111101001000 F
b11111111111101001000 /"
0t"
b1 ]
b1 2"
b1 z"
1s"
b1101111 S
b1101111 L"
b1110100 [
b1110100 K"
b111 \
b111 )"
b111 J"
b11111 C
b11111 >"
b10001 B
b10001 ?"
b111010010001 X
b11101001000111111111 Y
b101100 U
b101100 ;"
b101100 <"
b110100100 8"
b110100000 .
b110100000 R
b110100000 9"
b110100000 ="
b0 '"
b0 @"
b0 $"
b10011 &"
b110010000 !"
b110010100 g
b110011000 t
b110011000 H"
b11101001000111111111000001101111 }
b101100 _
b101100 4"
b101100 W
b101100 7"
b110011100 |
b110011100 5"
b1101 %
1"
#1350
0"
#1400
b0 <
b0 6"
b0 G
b0 3"
0;
b0 N
b0 w"
0b
0O
b0 T
b0 :"
b0 x"
0M
b11111111111111111111111010010000 K
b11111111111111111111111010010000 I"
b0 Z
b0 y"
b0 ^
b0 {"
b11111111111111111111111010010000 L
b11111111111111111111111010010000 G"
b0 H
b0 ."
b0 I
b0 -"
b0 A
b0 0"
b0 J
b0 ,"
b0 @
b0 1"
b0 F
b0 /"
b0 ]
b0 2"
b0 z"
0s"
b0 S
b0 L"
b0 [
b0 K"
b0 \
b0 )"
b0 J"
b0 C
b0 >"
b0 B
b0 ?"
b0 X
b0 Y
b110000 U
b110000 ;"
b110000 <"
b10000000111000001001100011 *
b10000000111000001001100011 7
b10000000111000001001100011 >
b1011 6
b110010100 !"
b110011000 g
b10 q
b10 r
b10 v
b10001 {
b11111 z
b11111111111111111111111010010000 w
b11101001000111111111000001101111 x
b110011100 t
b110011100 H"
b0 }
b0 _
b0 4"
b0 W
b0 7"
b0 |
b0 5"
b110000 8"
b101100 .
b101100 R
b101100 9"
b101100 ="
b1110 %
1"
#1450
0"
#1500
b100100 G
b100100 3"
b10010 c
b10010 |"
b1 T
b1 :"
b1 x"
b11111111111111111111000000100100 <
b11111111111111111111000000100100 6"
0`
b100100 3
1M
b0 K
b0 I"
1Q"
b11111111111111111111000000000000 Q
b11111111111111111111000000000000 +"
b11111111111111111111000000000000 C"
b10011 *
b10011 7
b10011 >
b1100 6
b10010000 1
b0 L
b0 G"
b100000 I
b100000 -"
b100100 A
b100100 0"
b10010 J
b10010 ,"
b10000000111000 @
b10000000111000 1"
b11100000000010000 F
b11100000000010000 /"
b100 ]
b100 2"
b100 z"
1u"
b1100011 S
b1100011 L"
b1 [
b1 K"
b111 C
b111 >"
b100 E
b100000 X
b10000000111000 Y
b110100 U
b110100 ;"
b110100 <"
b110100 8"
b110000 .
b110000 R
b110000 9"
b110000 ="
b110011000 !"
b10 0
b10 4
b10 8
b10 e
b10 i
b11111111111111111111111010010000 -
b11111111111111111111111010010000 a
b11111111111111111111111010010000 j
b11101001000111111111000001101111 k
b110011100 g
b0 q
b0 r
b0 v
0o
0u
b0 {
b0 z
b0 w
b0 x
b0 t
b0 H"
b10000000111000001001100011 }
b1010000 _
b1010000 4"
b1010000 W
b1010000 7"
b101100 |
b101100 5"
b1111 %
1"
#1550
0"
#1600
b0 G
b0 3"
b110100000 ("
b110100000 A"
b11 c
b11 |"
1b
1O
0;
b0 T
b0 :"
b0 x"
b0 <
b0 6"
1`
b0 3
1N"
0Q"
b0 Q
b0 +"
b0 C"
b0 1
0M
b1 K
b1 I"
b0 I
b0 -"
b0 A
b0 0"
b0 J
b0 ,"
b0 @
b0 1"
b0 F
b0 /"
1t"
b10000 ]
b10000 2"
b10000 z"
0u"
b10011 S
b10011 L"
b0 [
b0 K"
b0 C
b0 >"
b0 E
b0 X
b0 Y
b111000 U
b111000 ;"
b111000 <"
b1101 6
b10 #"
b11111111111111111111111010010000 $"
b11101001000111111111000001101111 &"
b110011100 !"
b0 0
b0 4
b0 8
b0 e
b0 i
0h
b0 -
b0 a
b0 j
b0 k
b0 g
b10010 n
b10010 F"
b111 z
b100 y
b100100 w
b11111111111111111111000000000000 =
b11111111111111111111000000000000 E"
b11111111111111111111000000000000 m
b10000000111000001001100011 x
b101100 t
b101100 H"
b10011 }
b110000 _
b110000 4"
b110000 W
b110000 7"
b110000 |
b110000 5"
b111000 8"
b110100 .
b110100 R
b110100 9"
b110100 ="
b10000 %
1"
#1650
0"
#1700
b0 ("
b0 A"
b1110 6
b1 1
1M
b0 K
b0 I"
b111100 U
b111100 ;"
b111100 <"
b111100 8"
b111000 .
b111000 R
b111000 9"
b111000 ="
b0 #"
0""
b0 $"
b0 &"
b0 !"
b100 l
b1 -
b1 a
b1 j
b10000000111000001001100011 k
b101100 g
b11 n
b11 F"
1o
1u
b0 z
b0 y
b0 w
b0 =
b0 E"
b0 m
b10011 x
b110000 t
b110000 H"
b110100 _
b110100 4"
b110100 W
b110100 7"
b110100 |
b110100 5"
b10001 %
1"
#1750
0"
#1800
b1 ("
b1 A"
b0 1
b1000000 U
b1000000 ;"
b1000000 <"
b1111 6
b100 '"
b100 @"
b1 $"
b10000000111000001001100011 &"
b101100 !"
1h
b0 l
b0 -
b0 a
b0 j
b10011 k
b110000 g
b110100 t
b110100 H"
b111000 _
b111000 4"
b111000 W
b111000 7"
b111000 |
b111000 5"
b1000000 8"
b111100 .
b111100 R
b111100 9"
b111100 ="
b10010 %
1"
#1850
0"
#1900
b0 ("
b0 A"
b100101000001010010011 *
b100101000001010010011 7
b100101000001010010011 >
b10000 6
b1000100 U
b1000100 ;"
b1000100 <"
b1000100 8"
b1000000 .
b1000000 R
b1000000 9"
b1000000 ="
1""
b0 '"
b0 @"
b0 $"
b10011 &"
b110000 !"
b110100 g
b111000 t
b111000 H"
b111100 _
b111100 4"
b111100 W
b111100 7"
b111100 |
b111100 5"
b10011 %
1"
#1950
0"
#2000
b10 <
b10 6"
b1 G
b1 3"
0`
b1 Q
b1 +"
b1 C"
b1 H
b1 ."
b1 I
b1 -"
b101 A
b101 0"
b10000000010 J
b10000000010 ,"
b100101000 @
b100101000 1"
b10100010000000000 F
b10100010000000000 /"
b101 C
b101 >"
b1 B
b1 ?"
b101 E
b1 X
b100101000 Y
b1001000 U
b1001000 ;"
b1001000 <"
b10011 *
b10011 7
b10011 >
b10001 6
b110100 !"
b111000 g
b111100 t
b111100 H"
b100101000001010010011 }
b1000001 _
b1000001 4"
b1000001 W
b1000001 7"
b1000000 |
b1000000 5"
b1001000 8"
b1000100 .
b1000100 R
b1000100 9"
b1000100 ="
b10100 %
1"
#2050
0"
#2100
b0 G
b0 3"
b0 <
b0 6"
1`
b0 Q
b0 +"
b0 C"
b10010 6
b1 L
b1 G"
0M
b10 K
b10 I"
b0 H
b0 ."
b0 I
b0 -"
b0 A
b0 0"
b0 J
b0 ,"
b0 @
b0 1"
b0 F
b0 /"
b0 C
b0 >"
b0 B
b0 ?"
b0 E
b0 X
b0 Y
b1001100 U
b1001100 ;"
b1001100 <"
b1001100 8"
b1001000 .
b1001000 R
b1001000 9"
b1001000 ="
b111000 !"
b111100 g
b1 {
b101 z
b101 y
b1 w
b1 =
b1 E"
b1 m
b100101000001010010011 x
b1000000 t
b1000000 H"
b10011 }
b1000100 _
b1000100 4"
b1000100 W
b1000100 7"
b1000100 |
b1000100 5"
b10101 %
1"
#2150
0"
#2200
1M
b10 1
b0 L
b0 G"
b0 K
b0 I"
b1010000 U
b1010000 ;"
b1010000 <"
b10011 6
b111100 !"
b101 l
b10 -
b10 a
b10 j
b100101000001010010011 k
b1000000 g
b0 {
b0 z
b0 y
b0 w
b0 =
b0 E"
b0 m
b10011 x
b1000100 t
b1000100 H"
b1001000 _
b1001000 4"
b1001000 W
b1001000 7"
b1001000 |
b1001000 5"
b1010000 8"
b1001100 .
b1001100 R
b1001100 9"
b1001100 ="
b10110 %
1"
#2250
0"
#2300
b10 ("
b10 A"
b10110000000111001101001100011 *
b10110000000111001101001100011 7
b10110000000111001101001100011 >
b10100 6
b0 1
b1010100 U
b1010100 ;"
b1010100 <"
b1010100 8"
b1010000 .
b1010000 R
b1010000 9"
b1010000 ="
b101 '"
b101 @"
b10 $"
b100101000001010010011 &"
b1000000 !"
b0 l
b0 -
b0 a
b0 j
b10011 k
b1000100 g
b1001000 t
b1001000 H"
b1001100 _
b1001100 4"
b1001100 W
b1001100 7"
b1001100 |
b1001100 5"
b10111 %
1"
#2350
0"
